<?xml version="1.0" encoding="UTF-8" standalone="no"?>
<!-- Created with Inkscape (http://www.inkscape.org/) -->

<svg
   xmlns:ns1="http://www.iki.fi/pav/software/textext/"
   xmlns:dc="http://purl.org/dc/elements/1.1/"
   xmlns:cc="http://creativecommons.org/ns#"
   xmlns:rdf="http://www.w3.org/1999/02/22-rdf-syntax-ns#"
   xmlns:svg="http://www.w3.org/2000/svg"
   xmlns="http://www.w3.org/2000/svg"
   xmlns:sodipodi="http://sodipodi.sourceforge.net/DTD/sodipodi-0.dtd"
   xmlns:inkscape="http://www.inkscape.org/namespaces/inkscape"
   width="224.07376mm"
   height="207.24617mm"
   viewBox="0 0 224.07377 207.24618"
   version="1.1"
   id="svg8"
   inkscape:version="0.92.3 (2405546, 2018-03-11)"
   sodipodi:docname="ppv_cinematica_conjuntos_02.svg"
   inkscape:export-filename="/home/dancab/git/Tesis-git/Imagenes/05-Apendices/ppv_cinematica_conjuntos_02.png"
   inkscape:export-xdpi="301"
   inkscape:export-ydpi="301">
  <sodipodi:namedview
     id="base"
     pagecolor="#ffffff"
     bordercolor="#666666"
     borderopacity="1.0"
     inkscape:pageopacity="1"
     inkscape:pageshadow="2"
     inkscape:zoom="0.49497475"
     inkscape:cx="238.15007"
     inkscape:cy="451.69829"
     inkscape:document-units="mm"
     inkscape:current-layer="layer1"
     showgrid="false"
     inkscape:window-width="1366"
     inkscape:window-height="714"
     inkscape:window-x="0"
     inkscape:window-y="0"
     inkscape:window-maximized="1"
     inkscape:snap-global="false"
     fit-margin-top="0"
     fit-margin-left="0"
     fit-margin-right="0"
     fit-margin-bottom="0"
     inkscape:pagecheckerboard="true" />
  <defs
     id="defs2">
    <marker
       inkscape:stockid="Arrow2Mend"
       orient="auto"
       refY="0"
       refX="0"
       id="marker2344"
       style="overflow:visible"
       inkscape:isstock="true">
      <path
         inkscape:connector-curvature="0"
         id="path2342"
         style="fill:#000000;fill-opacity:1;fill-rule:evenodd;stroke:#000000;stroke-width:0.625;stroke-linejoin:round;stroke-opacity:1"
         d="M 8.7185878,4.0337352 -2.2072895,0.01601326 8.7185884,-4.0017078 c -1.7454984,2.3720609 -1.7354408,5.6174519 -6e-7,8.035443 z"
         transform="scale(-0.6)" />
    </marker>
    <marker
       inkscape:stockid="Arrow2Lstart"
       orient="auto"
       refY="0"
       refX="0"
       id="marker2300"
       style="overflow:visible"
       inkscape:isstock="true">
      <path
         inkscape:connector-curvature="0"
         id="path2298"
         style="fill:#000000;fill-opacity:1;fill-rule:evenodd;stroke:#000000;stroke-width:0.625;stroke-linejoin:round;stroke-opacity:1"
         d="M 8.7185878,4.0337352 -2.2072895,0.01601326 8.7185884,-4.0017078 c -1.7454984,2.3720609 -1.7354408,5.6174519 -6e-7,8.035443 z"
         transform="matrix(1.1,0,0,1.1,1.1,0)" />
    </marker>
    <marker
       inkscape:stockid="Arrow2Lstart"
       orient="auto"
       refY="0"
       refX="0"
       id="marker2270"
       style="overflow:visible"
       inkscape:isstock="true">
      <path
         inkscape:connector-curvature="0"
         id="path2268"
         style="fill:#000000;fill-opacity:1;fill-rule:evenodd;stroke:#000000;stroke-width:0.625;stroke-linejoin:round;stroke-opacity:1"
         d="M 8.7185878,4.0337352 -2.2072895,0.01601326 8.7185884,-4.0017078 c -1.7454984,2.3720609 -1.7354408,5.6174519 -6e-7,8.035443 z"
         transform="matrix(1.1,0,0,1.1,1.1,0)" />
    </marker>
    <marker
       inkscape:isstock="true"
       style="overflow:visible"
       id="Arrow2Lstart"
       refX="0"
       refY="0"
       orient="auto"
       inkscape:stockid="Arrow2Lstart">
      <path
         transform="matrix(1.1,0,0,1.1,1.1,0)"
         d="M 8.7185878,4.0337352 -2.2072895,0.01601326 8.7185884,-4.0017078 c -1.7454984,2.3720609 -1.7354408,5.6174519 -6e-7,8.035443 z"
         style="fill:#000000;fill-opacity:1;fill-rule:evenodd;stroke:#000000;stroke-width:0.625;stroke-linejoin:round;stroke-opacity:1"
         id="path927"
         inkscape:connector-curvature="0" />
    </marker>
    <marker
       inkscape:isstock="true"
       style="overflow:visible"
       id="Arrow2Mend"
       refX="0"
       refY="0"
       orient="auto"
       inkscape:stockid="Arrow2Mend"
       inkscape:collect="always">
      <path
         transform="scale(-0.6)"
         d="M 8.7185878,4.0337352 -2.2072895,0.01601326 8.7185884,-4.0017078 c -1.7454984,2.3720609 -1.7354408,5.6174519 -6e-7,8.035443 z"
         style="fill:#000000;fill-opacity:1;fill-rule:evenodd;stroke:#000000;stroke-width:0.625;stroke-linejoin:round;stroke-opacity:1"
         id="path936"
         inkscape:connector-curvature="0" />
    </marker>
    <marker
       inkscape:isstock="true"
       style="overflow:visible"
       id="Arrow2Lend"
       refX="0"
       refY="0"
       orient="auto"
       inkscape:stockid="Arrow2Lend">
      <path
         transform="matrix(-1.1,0,0,-1.1,-1.1,0)"
         d="M 8.7185878,4.0337352 -2.2072895,0.01601326 8.7185884,-4.0017078 c -1.7454984,2.3720609 -1.7354408,5.6174519 -6e-7,8.035443 z"
         style="fill:#000000;fill-opacity:1;fill-rule:evenodd;stroke:#000000;stroke-width:0.625;stroke-linejoin:round;stroke-opacity:1"
         id="path930"
         inkscape:connector-curvature="0" />
    </marker>
    <marker
       inkscape:isstock="true"
       style="overflow:visible"
       id="Arrow1Lend"
       refX="0"
       refY="0"
       orient="auto"
       inkscape:stockid="Arrow1Lend">
      <path
         transform="matrix(-0.8,0,0,-0.8,-10,0)"
         style="fill:#000000;fill-opacity:1;fill-rule:evenodd;stroke:#000000;stroke-width:1.00000003pt;stroke-opacity:1"
         d="M 0,0 5,-5 -12.5,0 5,5 Z"
         id="path912"
         inkscape:connector-curvature="0" />
    </marker>
  </defs>
  <metadata
     id="metadata5">
    <rdf:RDF>
      <cc:Work
         rdf:about="">
        <dc:format>image/svg+xml</dc:format>
        <dc:type
           rdf:resource="http://purl.org/dc/dcmitype/StillImage" />
        <dc:title></dc:title>
      </cc:Work>
    </rdf:RDF>
  </metadata>
  <g
     id="layer1"
     inkscape:groupmode="layer"
     inkscape:label="Layer 1"
     transform="translate(-19.486398,11.656802)">
    <g
       id="g823"
       ns1:jacobian_sqrt="0.705556"
       ns1:alignment="middle center"
       ns1:scale="2.0"
       ns1:preamble="/home/dancab/.config/inkscape/extensions/textext/default_packages.tex"
       ns1:text="$\\mathcal{W}$"
       ns1:pdfconverter="pdf2svg"
       ns1:texconverter="pdflatex"
       ns1:version="0.11.0"
       transform="matrix(1.2409316,0,0,1.2409316,-162.97596,-49.499267)"
       style="stroke-width:0.5685696">
      <g
         id="surface1"
         style="stroke-width:0.5685696">
        <g
           id="g820"
           style="fill:#000000;fill-opacity:1;stroke-width:0.5685696">
          <path
             id="path818"
             transform="translate(148.712,134.765)"
             d="m 2.40625,-1.28125 c 0.125,-0.828125 0.21875,-1.65625 0.21875,-2.5 0,-0.296875 0,-1.40625 -0.34375,-2.125 -0.390625,-0.796875 -0.921875,-0.90625 -1.25,-0.90625 -0.34375,0 -0.6875,0.28125 -0.6875,0.421875 0,0.078125 0.046875,0.078125 0.171875,0.078125 0.4375,0.046875 0.859375,0.25 1.125,1.0625 0.21875,0.625 0.25,1.375 0.25,1.8125 0,1.5 -0.359375,3.234375 -0.421875,3.46875 -0.015625,0.125 -0.03125,0.171875 -0.03125,0.265625 0,0.03125 0,0.15625 0.0625,0.15625 0.0625,0 0.0625,-0.015625 0.21875,-0.203125 1.109375,-1.3125 2.21875,-2.828125 3.3125,-4.71875 0.375,-0.6875 0.640625,-1.21875 0.6875,-1.28125 0.296875,0.921875 0.625,2.296875 0.828125,3.921875 0.046875,0.53125 0.109375,1.140625 0.109375,1.671875 0,0.03125 0.015625,0.5 0.015625,0.53125 0,0.03125 0.03125,0.078125 0.0625,0.078125 0.046875,0 0.0625,-0.015625 0.21875,-0.1875 1.234375,-1.390625 3.375,-4.296875 3.375,-6.015625 0,-0.796875 -0.421875,-1.0625 -0.734375,-1.0625 -0.265625,0 -0.421875,0.609375 -0.421875,0.765625 0,0.140625 0.046875,0.140625 0.125,0.15625 0.140625,0.015625 0.59375,0.09375 0.59375,0.75 0,1.140625 -2.4375,4.203125 -2.5,4.203125 C 7.375,-0.9375 7.375,-0.953125 7.359375,-1.171875 7.25,-3.3125 6.671875,-5.609375 6.265625,-6.703125 6.234375,-6.765625 6.234375,-6.8125 6.125,-6.8125 c -0.1875,0 -0.609375,0.25 -0.609375,0.4375 0,0.03125 0.03125,0.125 0.0625,0.171875 C 4.96875,-5.046875 4.0625,-3.375 2.40625,-1.28125 Z m 0,0"
             style="stroke:none;stroke-width:0"
             inkscape:connector-curvature="0" />
        </g>
      </g>
    </g>
    <ellipse
       style="opacity:1;vector-effect:none;fill:#ffffff;fill-opacity:1;fill-rule:nonzero;stroke:#000000;stroke-width:2;stroke-linecap:butt;stroke-linejoin:miter;stroke-miterlimit:4;stroke-dasharray:none;stroke-dashoffset:0;stroke-opacity:1;paint-order:fill markers stroke"
       id="path834"
       cx="56.147728"
       cy="45.145779"
       rx="26.767645"
       ry="28.311676" />
    <ellipse
       ry="28.311676"
       rx="26.767645"
       cy="141.15173"
       cx="56.147728"
       id="ellipse836"
       style="opacity:1;vector-effect:none;fill:#ffffff;fill-opacity:1;fill-rule:nonzero;stroke:#000000;stroke-width:2;stroke-linecap:butt;stroke-linejoin:miter;stroke-miterlimit:4;stroke-dasharray:none;stroke-dashoffset:0;stroke-opacity:1;paint-order:fill markers stroke" />
    <g
       transform="matrix(1.240932,0,0,1.240932,-160.64927,-144.64727)"
       ns1:version="0.11.0"
       ns1:texconverter="pdflatex"
       ns1:pdfconverter="pdf2svg"
       ns1:text="$\\mathcal{V}$"
       ns1:preamble="/home/dancab/.config/inkscape/extensions/textext/default_packages.tex"
       ns1:scale="3.51759917002"
       ns1:alignment="middle center"
       ns1:jacobian_sqrt="1.240932"
       id="g873">
      <g
         id="g871">
        <g
           style="fill:#000000;fill-opacity:1"
           id="g869">
          <path
             style="stroke:none;stroke-width:0"
             d="m 2.6875,-0.859375 c 0.15625,-1.21875 0.15625,-2.125 0.15625,-2.265625 0,-0.71875 0,-3.6875 -1.8125,-3.6875 -0.34375,0 -0.6875,0.28125 -0.6875,0.421875 0,0.078125 0.046875,0.078125 0.1875,0.078125 1.453125,0.125 1.578125,2.421875 1.578125,3.546875 0,1 -0.140625,2.203125 -0.25,2.859375 -0.03125,0.125 -0.03125,0.140625 -0.03125,0.1875 0,0.046875 0,0.171875 0.078125,0.171875 0.109375,0 2.515625,-1.84375 3.78125,-3.765625 0.515625,-0.78125 0.890625,-1.671875 0.890625,-2.34375 0,-0.84375 -0.5625,-1.15625 -0.96875,-1.15625 -0.28125,0 -0.421875,0.625 -0.421875,0.765625 0,0.140625 0.046875,0.140625 0.171875,0.15625 0.65625,0.078125 0.78125,0.609375 0.78125,0.84375 0,0.8125 -1.734375,2.859375 -3.453125,4.1875 z m 0,0"
             transform="translate(148.712,134.765)"
             id="path867"
             inkscape:connector-curvature="0" />
        </g>
      </g>
    </g>
    <circle
       r="0.50113034"
       cy="41.824409"
       cx="64.846268"
       id="path899"
       style="opacity:1;vector-effect:none;fill:#000000;fill-opacity:1;fill-rule:nonzero;stroke:#000000;stroke-width:1;stroke-linecap:butt;stroke-linejoin:miter;stroke-miterlimit:4;stroke-dasharray:none;stroke-dashoffset:0;stroke-opacity:1;paint-order:fill markers stroke" />
    <circle
       style="opacity:1;vector-effect:none;fill:#000000;fill-opacity:1;fill-rule:nonzero;stroke:#000000;stroke-width:1;stroke-linecap:butt;stroke-linejoin:miter;stroke-miterlimit:4;stroke-dasharray:none;stroke-dashoffset:0;stroke-opacity:1;paint-order:fill markers stroke"
       id="circle901"
       cx="64.846268"
       cy="142.74405"
       r="0.50113034" />
    <path
       inkscape:connector-curvature="0"
       id="path907"
       d="M 55.562499,77.395823 V 104.61011"
       style="fill:none;stroke:#000000;stroke-width:1;stroke-linecap:butt;stroke-linejoin:miter;stroke-miterlimit:4;stroke-dasharray:none;stroke-opacity:1;marker-end:url(#Arrow2Mend)" />
    <g
       transform="matrix(1.240932,0,0,1.240932,-120.0462,-70.425623)"
       ns1:version="0.11.0"
       ns1:texconverter="pdflatex"
       ns1:pdfconverter="pdf2svg"
       ns1:text="$\\mathscr{D}$"
       ns1:preamble="/home/dancab/.config/inkscape/extensions/textext/default_packages.tex"
       ns1:scale="3.51759917002"
       ns1:alignment="middle center"
       ns1:jacobian_sqrt="1.240932"
       id="g1512">
      <g
         id="g1510">
        <g
           style="fill:#000000;fill-opacity:1"
           id="g1508">
          <path
             style="stroke:none;stroke-width:0"
             d="m 8.46875,-5.609375 c 0,-0.046875 -0.03125,-0.078125 -0.078125,-0.078125 -0.171875,0 -0.328125,0.03125 -0.5,0.078125 C 7.609375,-6.5 6.8125,-7.0625 5.484375,-7.0625 c -1.171875,0 -2.75,0.6875 -3.515625,1.78125 -0.40625,0.5625 -0.609375,1.125 -0.609375,1.578125 0,0.59375 0.375,0.984375 1.15625,0.984375 0.71875,0 1.65625,-0.6875 2.15625,-1.421875 C 5,-4.609375 5.1875,-5.0625 5.1875,-5.453125 c 0,-0.046875 0,-0.09375 0,-0.140625 C 5.171875,-5.625 5.140625,-5.65625 5.109375,-5.65625 h -0.03125 c -0.015625,0 -0.046875,0 -0.0625,0.015625 -0.046875,0.015625 -0.0625,0.03125 -0.0625,0.078125 0,0.375 -0.171875,0.84375 -0.515625,1.328125 C 3.953125,-3.5625 3.140625,-2.9375 2.5625,-2.9375 c -0.5,0 -0.734375,-0.25 -0.734375,-0.65625 C 1.828125,-4 2.0625,-4.578125 2.5,-5.1875 3.15625,-6.125 4.484375,-6.84375 5.4375,-6.84375 c 1.21875,0 1.921875,0.515625 2.15625,1.34375 -1,0.453125 -2,1.625 -2.765625,2.6875 C 4.140625,-1.828125 3.375,-0.75 2.734375,-0.296875 2.5,-0.390625 2.25,-0.484375 1.921875,-0.484375 H 1.84375 c -0.390625,0 -0.96875,0.015625 -1.171875,0.28125 C 0.640625,-0.15625 0.625,-0.125 0.625,-0.09375 c 0,0.234375 0.734375,0.265625 1.203125,0.265625 h 0.3125 c 0.234375,0 0.484375,-0.0625 0.71875,-0.15625 C 3.1875,0.15625 3.484375,0.3125 3.90625,0.3125 4.125,0.3125 4.359375,0.265625 4.65625,0.15625 5.796875,-0.25 6.703125,-1.3125 7.21875,-2.265625 7.71875,-3.203125 8,-4.078125 8,-4.828125 8,-5 7.96875,-5.1875 7.9375,-5.34375 c 0.140625,-0.078125 0.28125,-0.125 0.40625,-0.125 0.03125,0 0.046875,-0.015625 0.0625,-0.03125 0.03125,-0.046875 0.0625,-0.078125 0.0625,-0.109375 z M 6.953125,-2.34375 C 6.484375,-1.4375 5.6875,-0.453125 4.640625,-0.046875 4.375,0.046875 4.140625,0.09375 3.9375,0.09375 3.625,0.09375 3.375,0 3.125,-0.109375 4.0625,-0.625 4.984375,-1.71875 5.6875,-2.71875 c 0.65625,-0.9375 1.375,-1.921875 1.984375,-2.421875 0,0.109375 0.015625,0.21875 0.015625,0.328125 0,0.703125 -0.25,1.546875 -0.734375,2.46875 z M 2.1875,-0.0625 C 1.28125,-0.0625 1.203125,-0.125 1.203125,-0.109375 1.28125,-0.234375 1.5625,-0.25 1.890625,-0.25 2.125,-0.25 2.328125,-0.203125 2.5,-0.140625 2.390625,-0.09375 2.28125,-0.0625 2.1875,-0.0625 Z m 0,0"
             transform="translate(148.712,134.765)"
             id="path1506"
             inkscape:connector-curvature="0" />
        </g>
      </g>
    </g>
    <g
       transform="matrix(1.240932,0,0,1.240932,-116.6391,-122.82196)"
       ns1:version="0.11.0"
       ns1:texconverter="pdflatex"
       ns1:pdfconverter="pdf2svg"
       ns1:text="$\\mathbf{v}$"
       ns1:preamble="/home/dancab/.config/inkscape/extensions/textext/default_packages.tex"
       ns1:scale="3.51759917002"
       ns1:alignment="middle center"
       ns1:jacobian_sqrt="1.240932"
       id="g1768">
      <g
         id="g1766">
        <g
           style="fill:#000000;fill-opacity:1"
           id="g1764">
          <path
             inkscape:connector-curvature="0"
             style="stroke:none;stroke-width:0"
             d="m 5.046875,-3.75 c 0.0625,-0.140625 0.09375,-0.203125 0.734375,-0.203125 v -0.46875 C 5.53125,-4.40625 5.25,-4.390625 5,-4.390625 c -0.25,0 -0.703125,-0.03125 -0.90625,-0.03125 v 0.46875 c 0.1875,0 0.46875,0.03125 0.46875,0.109375 0,0 0,0.03125 -0.046875,0.109375 l -1.15625,2.5 -1.265625,-2.71875 H 2.625 v -0.46875 c -0.328125,0.015625 -1.21875,0.03125 -1.234375,0.03125 -0.28125,0 -0.71875,-0.03125 -1.125,-0.03125 v 0.46875 h 0.625 l 1.75,3.75 c 0.125,0.25 0.25,0.25 0.375,0.25 0.171875,0 0.28125,-0.03125 0.375,-0.25 z m 0,0"
             transform="translate(148.712,134.765)"
             id="path1762" />
        </g>
      </g>
    </g>
    <g
       id="g1904"
       ns1:jacobian_sqrt="1.240932"
       ns1:alignment="middle center"
       ns1:scale="3.51759917002"
       ns1:preamble="/home/dancab/.config/inkscape/extensions/textext/default_packages.tex"
       ns1:text="$\\mathbf{D}$"
       ns1:pdfconverter="pdf2svg"
       ns1:texconverter="pdflatex"
       ns1:version="0.11.0"
       transform="matrix(1.240932,0,0,1.240932,-115.53474,-23.016375)">
      <g
         id="g1902">
        <g
           id="g1900"
           style="fill:#000000;fill-opacity:1">
          <path
             id="path1898"
             transform="translate(148.712,134.765)"
             d="m 1.46875,-6.375 v 5.90625 H 0.390625 V 0 H 4.6875 c 1.96875,0 3.453125,-1.21875 3.453125,-3.359375 0,-2.1875 -1.484375,-3.484375 -3.46875,-3.484375 H 0.390625 V -6.375 Z m 1.359375,5.90625 V -6.375 H 4.28125 c 0.65625,0 1.484375,0.1875 1.96875,0.890625 0.34375,0.515625 0.421875,1.1875 0.421875,2.109375 0,1.09375 -0.109375,1.625 -0.4375,2.0625 -0.46875,0.6875 -1.34375,0.84375 -1.953125,0.84375 z m 0,0"
             style="stroke:none;stroke-width:0"
             inkscape:connector-curvature="0" />
        </g>
      </g>
    </g>
    <ellipse
       ry="28.311676"
       rx="26.767645"
       cy="45.145779"
       cx="197.80058"
       id="ellipse2078"
       style="opacity:1;vector-effect:none;fill:#ffffff;fill-opacity:1;fill-rule:nonzero;stroke:#000000;stroke-width:2;stroke-linecap:butt;stroke-linejoin:miter;stroke-miterlimit:4;stroke-dasharray:none;stroke-dashoffset:0;stroke-opacity:1;paint-order:fill markers stroke" />
    <ellipse
       style="opacity:1;vector-effect:none;fill:#ffffff;fill-opacity:1;fill-rule:nonzero;stroke:#000000;stroke-width:2;stroke-linecap:butt;stroke-linejoin:miter;stroke-miterlimit:4;stroke-dasharray:none;stroke-dashoffset:0;stroke-opacity:1;paint-order:fill markers stroke"
       id="ellipse2080"
       cx="197.80058"
       cy="141.15173"
       rx="26.767645"
       ry="28.311676" />
    <circle
       style="opacity:1;vector-effect:none;fill:#000000;fill-opacity:1;fill-rule:nonzero;stroke:#000000;stroke-width:1;stroke-linecap:butt;stroke-linejoin:miter;stroke-miterlimit:4;stroke-dasharray:none;stroke-dashoffset:0;stroke-opacity:1;paint-order:fill markers stroke"
       id="circle2094"
       cx="206.49911"
       cy="41.824409"
       r="0.50113034" />
    <circle
       r="0.50113034"
       cy="142.74405"
       cx="206.49911"
       id="circle2096"
       style="opacity:1;vector-effect:none;fill:#000000;fill-opacity:1;fill-rule:nonzero;stroke:#000000;stroke-width:1;stroke-linecap:butt;stroke-linejoin:miter;stroke-miterlimit:4;stroke-dasharray:none;stroke-dashoffset:0;stroke-opacity:1;paint-order:fill markers stroke" />
    <path
       style="fill:none;stroke:#000000;stroke-width:1;stroke-linecap:butt;stroke-linejoin:miter;stroke-miterlimit:4;stroke-dasharray:none;stroke-opacity:1;marker-end:url(#marker2344)"
       d="M 197.23457,106.12195 V 78.907663"
       id="path2102"
       inkscape:connector-curvature="0" />
    <text
       xml:space="preserve"
       style="font-style:normal;font-variant:normal;font-weight:normal;font-stretch:normal;font-size:8.46666622px;line-height:1.25;font-family:TeXGyreAdventor;-inkscape-font-specification:TeXGyreAdventor;text-align:center;letter-spacing:0px;word-spacing:0px;writing-mode:lr-tb;text-anchor:middle;fill:#000000;fill-opacity:1;stroke:none;stroke-width:0.26458332"
       x="61.845989"
       y="-5.3999352"
       id="text2166"><tspan
         sodipodi:role="line"
         id="tspan2164"
         x="61.845989"
         y="-5.3999352"
         style="text-align:center;text-anchor:middle;stroke-width:0.26458332">Espacio de acciones</tspan><tspan
         sodipodi:role="line"
         x="61.845989"
         y="5.1833973"
         style="text-align:center;text-anchor:middle;stroke-width:0.26458332"
         id="tspan2168">de movimiento</tspan></text>
    <text
       id="text2174"
       y="-5.3999352"
       x="206.82719"
       style="font-style:normal;font-variant:normal;font-weight:normal;font-stretch:normal;font-size:8.46666622px;line-height:1.25;font-family:TeXGyreAdventor;-inkscape-font-specification:TeXGyreAdventor;text-align:center;letter-spacing:0px;word-spacing:0px;writing-mode:lr-tb;text-anchor:middle;fill:#000000;fill-opacity:1;stroke:none;stroke-width:0.26458332"
       xml:space="preserve"><tspan
         id="tspan2172"
         style="text-align:center;text-anchor:middle;stroke-width:0.26458332"
         y="-5.3999352"
         x="208.00128"
         sodipodi:role="line">Espacio de </tspan><tspan
         style="text-align:center;text-anchor:middle;stroke-width:0.26458332"
         y="5.1833973"
         x="206.82719"
         sodipodi:role="line"
         id="tspan2178">esfuerzos externos</tspan></text>
    <text
       id="text2184"
       y="184.89597"
       x="61.845989"
       style="font-style:normal;font-variant:normal;font-weight:normal;font-stretch:normal;font-size:8.46666622px;line-height:1.25;font-family:TeXGyreAdventor;-inkscape-font-specification:TeXGyreAdventor;text-align:center;letter-spacing:0px;word-spacing:0px;writing-mode:lr-tb;text-anchor:middle;fill:#000000;fill-opacity:1;stroke:none;stroke-width:0.26458332"
       xml:space="preserve"><tspan
         style="text-align:center;text-anchor:middle;stroke-width:0.26458332"
         y="184.89597"
         x="61.845989"
         id="tspan2180"
         sodipodi:role="line">Espacio de acciones</tspan><tspan
         id="tspan2182"
         style="text-align:center;text-anchor:middle;stroke-width:0.26458332"
         y="195.47929"
         x="61.845989"
         sodipodi:role="line">de deformación</tspan></text>
    <text
       xml:space="preserve"
       style="font-style:normal;font-variant:normal;font-weight:normal;font-stretch:normal;font-size:8.46666622px;line-height:1.25;font-family:TeXGyreAdventor;-inkscape-font-specification:TeXGyreAdventor;text-align:center;letter-spacing:0px;word-spacing:0px;writing-mode:lr-tb;text-anchor:middle;fill:#000000;fill-opacity:1;stroke:none;stroke-width:0.26458332"
       x="206.82719"
       y="182.75781"
       id="text2190"><tspan
         id="tspan2188"
         sodipodi:role="line"
         x="208.00128"
         y="182.75781"
         style="text-align:center;text-anchor:middle;stroke-width:0.26458332">Espacio de </tspan><tspan
         sodipodi:role="line"
         x="206.82719"
         y="193.34114"
         style="text-align:center;text-anchor:middle;stroke-width:0.26458332"
         id="tspan2194">esfuerzos internos</tspan></text>
    <g
       transform="matrix(1.240932,0,0,1.240932,19.352264,-70.425623)"
       ns1:version="0.11.0"
       ns1:texconverter="pdflatex"
       ns1:pdfconverter="pdf2svg"
       ns1:text="$\\mathscr{D}^*$"
       ns1:preamble="/home/dancab/.config/inkscape/extensions/textext/default_packages.tex"
       ns1:scale="3.51759917002"
       ns1:alignment="middle center"
       inkscapeversion="0.92.3"
       ns1:jacobian_sqrt="1.240932"
       id="g2529">
      <g
         id="g2527">
        <g
           style="fill:#000000;fill-opacity:1"
           id="g2521">
          <path
             style="stroke:none;stroke-width:0"
             d="m 8.46875,-5.609375 c 0,-0.046875 -0.03125,-0.078125 -0.078125,-0.078125 -0.171875,0 -0.328125,0.03125 -0.5,0.078125 C 7.609375,-6.5 6.8125,-7.0625 5.484375,-7.0625 c -1.171875,0 -2.75,0.6875 -3.515625,1.78125 -0.40625,0.5625 -0.609375,1.125 -0.609375,1.578125 0,0.59375 0.375,0.984375 1.15625,0.984375 0.71875,0 1.65625,-0.6875 2.15625,-1.421875 C 5,-4.609375 5.1875,-5.0625 5.1875,-5.453125 c 0,-0.046875 0,-0.09375 0,-0.140625 C 5.171875,-5.625 5.140625,-5.65625 5.109375,-5.65625 h -0.03125 c -0.015625,0 -0.046875,0 -0.0625,0.015625 -0.046875,0.015625 -0.0625,0.03125 -0.0625,0.078125 0,0.375 -0.171875,0.84375 -0.515625,1.328125 C 3.953125,-3.5625 3.140625,-2.9375 2.5625,-2.9375 c -0.5,0 -0.734375,-0.25 -0.734375,-0.65625 C 1.828125,-4 2.0625,-4.578125 2.5,-5.1875 3.15625,-6.125 4.484375,-6.84375 5.4375,-6.84375 c 1.21875,0 1.921875,0.515625 2.15625,1.34375 -1,0.453125 -2,1.625 -2.765625,2.6875 C 4.140625,-1.828125 3.375,-0.75 2.734375,-0.296875 2.5,-0.390625 2.25,-0.484375 1.921875,-0.484375 H 1.84375 c -0.390625,0 -0.96875,0.015625 -1.171875,0.28125 C 0.640625,-0.15625 0.625,-0.125 0.625,-0.09375 c 0,0.234375 0.734375,0.265625 1.203125,0.265625 h 0.3125 c 0.234375,0 0.484375,-0.0625 0.71875,-0.15625 C 3.1875,0.15625 3.484375,0.3125 3.90625,0.3125 4.125,0.3125 4.359375,0.265625 4.65625,0.15625 5.796875,-0.25 6.703125,-1.3125 7.21875,-2.265625 7.71875,-3.203125 8,-4.078125 8,-4.828125 8,-5 7.96875,-5.1875 7.9375,-5.34375 c 0.140625,-0.078125 0.28125,-0.125 0.40625,-0.125 0.03125,0 0.046875,-0.015625 0.0625,-0.03125 0.03125,-0.046875 0.0625,-0.078125 0.0625,-0.109375 z M 6.953125,-2.34375 C 6.484375,-1.4375 5.6875,-0.453125 4.640625,-0.046875 4.375,0.046875 4.140625,0.09375 3.9375,0.09375 3.625,0.09375 3.375,0 3.125,-0.109375 4.0625,-0.625 4.984375,-1.71875 5.6875,-2.71875 c 0.65625,-0.9375 1.375,-1.921875 1.984375,-2.421875 0,0.109375 0.015625,0.21875 0.015625,0.328125 0,0.703125 -0.25,1.546875 -0.734375,2.46875 z M 2.1875,-0.0625 C 1.28125,-0.0625 1.203125,-0.125 1.203125,-0.109375 1.28125,-0.234375 1.5625,-0.25 1.890625,-0.25 2.125,-0.25 2.328125,-0.203125 2.5,-0.140625 2.390625,-0.09375 2.28125,-0.0625 2.1875,-0.0625 Z m 0,0"
             transform="translate(148.712,134.765)"
             id="path2519"
             inkscape:connector-curvature="0" />
        </g>
        <g
           style="fill:#000000;fill-opacity:1"
           id="g2525">
          <path
             style="stroke:none;stroke-width:0"
             d="m 2.25,-1.734375 c 0.578125,-0.25 0.828125,-0.34375 1,-0.4375 0.140625,-0.046875 0.203125,-0.078125 0.203125,-0.21875 0,-0.109375 -0.09375,-0.21875 -0.21875,-0.21875 -0.046875,0 -0.0625,0 -0.140625,0.0625 L 2.140625,-1.90625 2.25,-2.9375 c 0.015625,-0.125 0,-0.296875 -0.21875,-0.296875 -0.078125,0 -0.21875,0.046875 -0.21875,0.203125 0,0.0625 0.03125,0.265625 0.046875,0.34375 0.015625,0.109375 0.0625,0.625 0.078125,0.78125 L 0.984375,-2.546875 c -0.0625,-0.03125 -0.078125,-0.0625 -0.140625,-0.0625 -0.140625,0 -0.21875,0.109375 -0.21875,0.21875 0,0.140625 0.078125,0.1875 0.140625,0.203125 L 1.8125,-1.734375 c -0.5625,0.25 -0.828125,0.34375 -1,0.421875 -0.125,0.0625 -0.1875,0.09375 -0.1875,0.21875 0,0.125 0.078125,0.21875 0.21875,0.21875 0.046875,0 0.0625,0 0.140625,-0.0625 l 0.953125,-0.625 -0.125,1.109375 c 0,0.15625 0.140625,0.21875 0.21875,0.21875 0.09375,0 0.21875,-0.0625 0.21875,-0.21875 0,-0.0625 -0.03125,-0.265625 -0.03125,-0.328125 -0.015625,-0.125 -0.0625,-0.625 -0.078125,-0.78125 L 2.96875,-1.015625 C 3.15625,-0.875 3.171875,-0.875 3.234375,-0.875 c 0.125,0 0.21875,-0.09375 0.21875,-0.21875 0,-0.140625 -0.09375,-0.171875 -0.15625,-0.203125 z m 0,0"
             transform="translate(157.361,131.149)"
             id="path2523"
             inkscape:connector-curvature="0" />
        </g>
      </g>
    </g>
    <g
       id="g2697"
       ns1:jacobian_sqrt="1.240932"
       inkscapeversion="0.92.3"
       ns1:alignment="middle center"
       ns1:scale="3.51759917002"
       ns1:preamble="/home/dancab/.config/inkscape/extensions/textext/default_packages.tex"
       ns1:text="$\\mathbf{T}$"
       ns1:pdfconverter="pdf2svg"
       ns1:texconverter="pdflatex"
       ns1:version="0.11.0"
       transform="matrix(1.240932,0,0,1.240932,26.467122,-23.084238)">
      <g
         id="g2695">
        <g
           id="g2693"
           style="fill:#000000;fill-opacity:1">
          <path
             id="path2691"
             transform="translate(148.712,134.765)"
             d="M 7.34375,-6.734375 H 0.625 l -0.203125,2.40625 h 0.46875 c 0.09375,-1.125 0.1875,-1.9375 1.625,-1.9375 H 3.28125 V -0.46875 H 1.75 V 0 c 0.546875,-0.03125 1.65625,-0.03125 2.234375,-0.03125 0.59375,0 1.703125,0 2.234375,0.03125 V -0.46875 H 4.6875 v -5.796875 h 0.765625 c 1.421875,0 1.53125,0.796875 1.625,1.9375 h 0.46875 z m 0,0"
             style="stroke:none;stroke-width:0"
             inkscape:connector-curvature="0" />
        </g>
      </g>
    </g>
    <g
       id="g3033"
       ns1:jacobian_sqrt="1.240932"
       inkscapeversion="0.92.3"
       ns1:alignment="middle center"
       ns1:scale="3.51759917002"
       ns1:preamble="/home/dancab/.config/inkscape/extensions/textext/default_packages.tex"
       ns1:text="$\\mathbf{f}$"
       ns1:pdfconverter="pdf2svg"
       ns1:texconverter="pdflatex"
       ns1:version="0.11.0"
       transform="matrix(1.240932,0,0,1.240932,25.799027,-121.20293)">
      <g
         id="g3031">
        <g
           id="g3029"
           style="fill:#000000;fill-opacity:1">
          <path
             id="path3027"
             transform="translate(148.712,134.765)"
             d="m 1.171875,-4.421875 h -0.75 v 0.46875 h 0.75 v 3.484375 h -0.6875 V 0 c 0.34375,-0.015625 0.796875,-0.03125 1.25,-0.03125 0.375,0 1.015625,0 1.375,0.03125 V -0.46875 H 2.25 v -3.484375 h 1.140625 v -0.46875 H 2.1875 V -5.4375 c 0,-1.09375 0.75,-1.1875 1,-1.1875 0.046875,0 0.109375,0 0.171875,0.03125 C 3.203125,-6.484375 3.125,-6.296875 3.125,-6.109375 3.125,-5.6875 3.484375,-5.5 3.734375,-5.5 c 0.296875,0 0.625,-0.203125 0.625,-0.609375 0,-0.421875 -0.359375,-0.875 -1.140625,-0.875 -0.96875,0 -2.046875,0.421875 -2.046875,1.546875 z m 0,0"
             style="stroke:none;stroke-width:0"
             inkscape:connector-curvature="0" />
        </g>
      </g>
    </g>
    <g
       transform="matrix(1.240932,0,0,1.240932,-20.50043,-144.21659)"
       ns1:version="0.11.0"
       ns1:texconverter="pdflatex"
       ns1:pdfconverter="pdf2svg"
       ns1:text="$\\mathcal{V}\'$"
       ns1:preamble="/home/dancab/.config/inkscape/extensions/textext/default_packages.tex"
       ns1:scale="3.51759917002"
       ns1:alignment="middle center"
       inkscapeversion="0.92.3"
       ns1:jacobian_sqrt="1.240932"
       id="g3205">
      <g
         id="g3203">
        <g
           style="fill:#000000;fill-opacity:1"
           id="g3197">
          <path
             style="stroke:none;stroke-width:0"
             d="m 2.6875,-0.859375 c 0.15625,-1.21875 0.15625,-2.125 0.15625,-2.265625 0,-0.71875 0,-3.6875 -1.8125,-3.6875 -0.34375,0 -0.6875,0.28125 -0.6875,0.421875 0,0.078125 0.046875,0.078125 0.1875,0.078125 1.453125,0.125 1.578125,2.421875 1.578125,3.546875 0,1 -0.140625,2.203125 -0.25,2.859375 -0.03125,0.125 -0.03125,0.140625 -0.03125,0.1875 0,0.046875 0,0.171875 0.078125,0.171875 0.109375,0 2.515625,-1.84375 3.78125,-3.765625 0.515625,-0.78125 0.890625,-1.671875 0.890625,-2.34375 0,-0.84375 -0.5625,-1.15625 -0.96875,-1.15625 -0.28125,0 -0.421875,0.625 -0.421875,0.765625 0,0.140625 0.046875,0.140625 0.171875,0.15625 0.65625,0.078125 0.78125,0.609375 0.78125,0.84375 0,0.8125 -1.734375,2.859375 -3.453125,4.1875 z m 0,0"
             transform="translate(148.712,134.765)"
             id="path3195"
             inkscape:connector-curvature="0" />
        </g>
        <g
           style="fill:#000000;fill-opacity:1"
           id="g3201">
          <path
             style="stroke:none;stroke-width:0"
             d="m 2.015625,-3.296875 c 0.0625,-0.109375 0.0625,-0.171875 0.0625,-0.21875 0,-0.21875 -0.1875,-0.375 -0.40625,-0.375 -0.265625,0 -0.34375,0.21875 -0.375,0.328125 L 0.375,-0.546875 c -0.015625,0.015625 -0.046875,0.09375 -0.046875,0.109375 0,0.078125 0.21875,0.15625 0.28125,0.15625 0.046875,0 0.046875,-0.015625 0.09375,-0.125 z m 0,0"
             transform="translate(155.636,131.149)"
             id="path3199"
             inkscape:connector-curvature="0" />
        </g>
      </g>
    </g>
    <g
       id="g3381"
       ns1:jacobian_sqrt="1.240932"
       inkscapeversion="0.92.3"
       ns1:alignment="middle center"
       ns1:scale="3.51759917002"
       ns1:preamble="/home/dancab/.config/inkscape/extensions/textext/default_packages.tex"
       ns1:text="$\\mathcal{W}\'$"
       ns1:pdfconverter="pdf2svg"
       ns1:texconverter="pdflatex"
       ns1:version="0.11.0"
       transform="matrix(1.240932,0,0,1.240932,-22.818495,-49.068639)">
      <g
         id="g3379">
        <g
           id="g3373"
           style="fill:#000000;fill-opacity:1">
          <path
             id="path3371"
             transform="translate(148.712,134.765)"
             d="m 2.40625,-1.28125 c 0.125,-0.828125 0.21875,-1.65625 0.21875,-2.5 0,-0.296875 0,-1.40625 -0.34375,-2.125 -0.390625,-0.796875 -0.921875,-0.90625 -1.25,-0.90625 -0.34375,0 -0.6875,0.28125 -0.6875,0.421875 0,0.078125 0.046875,0.078125 0.171875,0.078125 0.4375,0.046875 0.859375,0.25 1.125,1.0625 0.21875,0.625 0.25,1.375 0.25,1.8125 0,1.5 -0.359375,3.234375 -0.421875,3.46875 -0.015625,0.125 -0.03125,0.171875 -0.03125,0.265625 0,0.03125 0,0.15625 0.0625,0.15625 0.0625,0 0.0625,-0.015625 0.21875,-0.203125 1.109375,-1.3125 2.21875,-2.828125 3.3125,-4.71875 0.375,-0.6875 0.640625,-1.21875 0.6875,-1.28125 0.296875,0.921875 0.625,2.296875 0.828125,3.921875 0.046875,0.53125 0.109375,1.140625 0.109375,1.671875 0,0.03125 0.015625,0.5 0.015625,0.53125 0,0.03125 0.03125,0.078125 0.0625,0.078125 0.046875,0 0.0625,-0.015625 0.21875,-0.1875 1.234375,-1.390625 3.375,-4.296875 3.375,-6.015625 0,-0.796875 -0.421875,-1.0625 -0.734375,-1.0625 -0.265625,0 -0.421875,0.609375 -0.421875,0.765625 0,0.140625 0.046875,0.140625 0.125,0.15625 0.140625,0.015625 0.59375,0.09375 0.59375,0.75 0,1.140625 -2.4375,4.203125 -2.5,4.203125 C 7.375,-0.9375 7.375,-0.953125 7.359375,-1.171875 7.25,-3.3125 6.671875,-5.609375 6.265625,-6.703125 6.234375,-6.765625 6.234375,-6.8125 6.125,-6.8125 c -0.1875,0 -0.609375,0.25 -0.609375,0.4375 0,0.03125 0.03125,0.125 0.0625,0.171875 C 4.96875,-5.046875 4.0625,-3.375 2.40625,-1.28125 Z m 0,0"
             style="stroke:none;stroke-width:0"
             inkscape:connector-curvature="0" />
        </g>
        <g
           id="g3377"
           style="fill:#000000;fill-opacity:1">
          <path
             id="path3375"
             transform="translate(159.372,131.149)"
             d="m 2.015625,-3.296875 c 0.0625,-0.109375 0.0625,-0.171875 0.0625,-0.21875 0,-0.21875 -0.1875,-0.375 -0.40625,-0.375 -0.265625,0 -0.34375,0.21875 -0.375,0.328125 L 0.375,-0.546875 c -0.015625,0.015625 -0.046875,0.09375 -0.046875,0.109375 0,0.078125 0.21875,0.15625 0.28125,0.15625 0.046875,0 0.046875,-0.015625 0.09375,-0.125 z m 0,0"
             style="stroke:none;stroke-width:0"
             inkscape:connector-curvature="0" />
        </g>
      </g>
    </g>
    <g
       transform="matrix(1.240931,0,0,1.240931,-84.099774,-118.32566)"
       ns1:version="0.11.0"
       ns1:texconverter="pdflatex"
       ns1:pdfconverter="pdf2svg"
       ns1:text="$P_e = \\left\\langle \\mathbf{f},\\mathbf{v} \\right\\rangle$"
       ns1:preamble="/home/dancab/.config/inkscape/extensions/textext/default_packages.tex"
       ns1:scale="3.51759917002"
       ns1:alignment="middle center"
       inkscapeversion="0.92.3"
       ns1:jacobian_sqrt="1.240931"
       id="g3589">
      <g
         id="g3587">
        <g
           style="fill:#000000;fill-opacity:1"
           id="g3557">
          <path
             inkscape:connector-curvature="0"
             style="stroke:none;stroke-width:0"
             d="M 3.015625,-3.15625 H 4.71875 c 1.40625,0 2.796875,-1.03125 2.796875,-2.140625 0,-0.78125 -0.65625,-1.515625 -1.96875,-1.515625 h -3.21875 c -0.1875,0 -0.296875,0 -0.296875,0.1875 0,0.125 0.078125,0.125 0.28125,0.125 0.125,0 0.3125,0.015625 0.421875,0.015625 0.171875,0.03125 0.21875,0.046875 0.21875,0.171875 0,0.03125 0,0.0625 -0.03125,0.1875 l -1.34375,5.34375 c -0.09375,0.390625 -0.109375,0.46875 -0.90625,0.46875 -0.15625,0 -0.265625,0 -0.265625,0.1875 C 0.40625,0 0.515625,0 0.546875,0 0.828125,0 1.53125,-0.03125 1.8125,-0.03125 c 0.21875,0 0.4375,0.015625 0.640625,0.015625 0.21875,0 0.4375,0.015625 0.640625,0.015625 0.078125,0 0.203125,0 0.203125,-0.203125 0,-0.109375 -0.09375,-0.109375 -0.28125,-0.109375 -0.359375,0 -0.640625,0 -0.640625,-0.171875 0,-0.0625 0.015625,-0.109375 0.03125,-0.171875 z M 3.734375,-6.125 C 3.828125,-6.46875 3.84375,-6.5 4.28125,-6.5 h 0.953125 c 0.828125,0 1.359375,0.265625 1.359375,0.953125 0,0.390625 -0.203125,1.25 -0.59375,1.609375 -0.5,0.453125 -1.09375,0.53125 -1.53125,0.53125 H 3.0625 Z m 0,0"
             transform="translate(148.712,134.765)"
             id="path3555" />
        </g>
        <g
           style="fill:#000000;fill-opacity:1"
           id="g3561">
          <path
             inkscape:connector-curvature="0"
             style="stroke:none;stroke-width:0"
             d="m 1.5625,-1.59375 c 0.1875,0 0.75,-0.015625 1.125,-0.140625 0.515625,-0.1875 0.609375,-0.515625 0.609375,-0.71875 0,-0.390625 -0.390625,-0.625 -0.859375,-0.625 -0.84375,0 -1.96875,0.640625 -1.96875,1.84375 0,0.703125 0.4375,1.296875 1.25,1.296875 1.1875,0 1.734375,-0.6875 1.734375,-0.78125 0,-0.046875 -0.0625,-0.125 -0.125,-0.125 -0.03125,0 -0.046875,0.015625 -0.109375,0.078125 C 2.671875,-0.125 1.859375,-0.125 1.734375,-0.125 1.3125,-0.125 1.03125,-0.40625 1.03125,-0.96875 c 0,-0.09375 0,-0.234375 0.09375,-0.625 z M 1.171875,-1.78125 C 1.46875,-2.796875 2.234375,-2.875 2.4375,-2.875 2.734375,-2.875 3,-2.71875 3,-2.453125 3,-1.78125 1.8125,-1.78125 1.515625,-1.78125 Z m 0,0"
             transform="translate(155.108,136.259)"
             id="path3559" />
        </g>
        <g
           style="fill:#000000;fill-opacity:1"
           id="g3565">
          <path
             inkscape:connector-curvature="0"
             style="stroke:none;stroke-width:0"
             d="m 6.84375,-3.265625 c 0.15625,0 0.34375,0 0.34375,-0.1875 C 7.1875,-3.65625 7,-3.65625 6.859375,-3.65625 h -5.96875 c -0.140625,0 -0.328125,0 -0.328125,0.203125 0,0.1875 0.1875,0.1875 0.328125,0.1875 z m 0.015625,1.9375 c 0.140625,0 0.328125,0 0.328125,-0.203125 0,-0.1875 -0.1875,-0.1875 -0.34375,-0.1875 H 0.890625 c -0.140625,0 -0.328125,0 -0.328125,0.1875 0,0.203125 0.1875,0.203125 0.328125,0.203125 z m 0,0"
             transform="translate(162.154,134.765)"
             id="path3563" />
        </g>
        <g
           style="fill:#000000;fill-opacity:1"
           id="g3569">
          <path
             inkscape:connector-curvature="0"
             style="stroke:none;stroke-width:0"
             d="M 3.265625,-7.09375 C 3.3125,-7.203125 3.3125,-7.234375 3.3125,-7.28125 c 0,-0.109375 -0.078125,-0.203125 -0.1875,-0.203125 -0.09375,0 -0.171875,0.0625 -0.234375,0.234375 l -1.75,4.578125 C 1.125,-2.609375 1.09375,-2.546875 1.09375,-2.5 c 0,0.03125 0,0.0625 0.046875,0.171875 L 2.890625,2.25 C 2.9375,2.359375 2.984375,2.5 3.125,2.5 c 0.109375,0 0.1875,-0.09375 0.1875,-0.203125 0,-0.03125 0,-0.046875 -0.046875,-0.15625 L 1.5,-2.5 Z m 0,0"
             transform="translate(172.67,134.765)"
             id="path3567" />
        </g>
        <g
           style="fill:#000000;fill-opacity:1"
           id="g3573">
          <path
             inkscape:connector-curvature="0"
             style="stroke:none;stroke-width:0"
             d="m 1.171875,-4.421875 h -0.75 v 0.46875 h 0.75 v 3.484375 h -0.6875 V 0 c 0.34375,-0.015625 0.796875,-0.03125 1.25,-0.03125 0.375,0 1.015625,0 1.375,0.03125 V -0.46875 H 2.25 v -3.484375 h 1.140625 v -0.46875 H 2.1875 V -5.4375 c 0,-1.09375 0.75,-1.1875 1,-1.1875 0.046875,0 0.109375,0 0.171875,0.03125 C 3.203125,-6.484375 3.125,-6.296875 3.125,-6.109375 3.125,-5.6875 3.484375,-5.5 3.734375,-5.5 c 0.296875,0 0.625,-0.203125 0.625,-0.609375 0,-0.421875 -0.359375,-0.875 -1.140625,-0.875 -0.96875,0 -2.046875,0.421875 -2.046875,1.546875 z m 0,0"
             transform="translate(176.544,134.765)"
             id="path3571" />
        </g>
        <g
           style="fill:#000000;fill-opacity:1"
           id="g3577">
          <path
             inkscape:connector-curvature="0"
             style="stroke:none;stroke-width:0"
             d="m 2.03125,-0.015625 c 0,-0.65625 -0.25,-1.046875 -0.640625,-1.046875 -0.328125,0 -0.53125,0.25 -0.53125,0.53125 C 0.859375,-0.265625 1.0625,0 1.390625,0 1.5,0 1.640625,-0.046875 1.734375,-0.125 1.765625,-0.15625 1.78125,-0.15625 1.78125,-0.15625 c 0.015625,0 0.015625,0 0.015625,0.140625 0,0.75 -0.34375,1.34375 -0.671875,1.671875 -0.109375,0.109375 -0.109375,0.125 -0.109375,0.15625 0,0.078125 0.046875,0.109375 0.09375,0.109375 0.109375,0 0.921875,-0.765625 0.921875,-1.9375 z m 0,0"
             transform="translate(181.131,134.765)"
             id="path3575" />
        </g>
        <g
           style="fill:#000000;fill-opacity:1"
           id="g3581">
          <path
             inkscape:connector-curvature="0"
             style="stroke:none;stroke-width:0"
             d="m 5.046875,-3.75 c 0.0625,-0.140625 0.09375,-0.203125 0.734375,-0.203125 v -0.46875 C 5.53125,-4.40625 5.25,-4.390625 5,-4.390625 c -0.25,0 -0.703125,-0.03125 -0.90625,-0.03125 v 0.46875 c 0.1875,0 0.46875,0.03125 0.46875,0.109375 0,0 0,0.03125 -0.046875,0.109375 l -1.15625,2.5 -1.265625,-2.71875 H 2.625 v -0.46875 c -0.328125,0.015625 -1.21875,0.03125 -1.234375,0.03125 -0.28125,0 -0.71875,-0.03125 -1.125,-0.03125 v 0.46875 h 0.625 l 1.75,3.75 c 0.125,0.25 0.25,0.25 0.375,0.25 0.171875,0 0.28125,-0.03125 0.375,-0.25 z m 0,0"
             transform="translate(185.559,134.765)"
             id="path3579" />
        </g>
        <g
           style="fill:#000000;fill-opacity:1"
           id="g3585">
          <path
             inkscape:connector-curvature="0"
             style="stroke:none;stroke-width:0"
             d="M 2.71875,-2.328125 C 2.765625,-2.4375 2.765625,-2.46875 2.765625,-2.5 c 0,-0.015625 0,-0.046875 -0.046875,-0.15625 L 0.984375,-7.25 c -0.0625,-0.171875 -0.125,-0.234375 -0.234375,-0.234375 -0.109375,0 -0.203125,0.09375 -0.203125,0.203125 0,0.03125 0,0.046875 0.046875,0.15625 L 2.359375,-2.5 0.59375,2.109375 C 0.546875,2.21875 0.546875,2.25 0.546875,2.296875 0.546875,2.40625 0.640625,2.5 0.75,2.5 0.875,2.5 0.921875,2.390625 0.953125,2.296875 Z m 0,0"
             transform="translate(191.765,134.765)"
             id="path3583" />
        </g>
      </g>
    </g>
    <g
       id="g4397"
       ns1:jacobian_sqrt="1.240931"
       inkscapeversion="0.92.3"
       ns1:alignment="middle center"
       ns1:scale="3.51759917002"
       ns1:preamble="/home/dancab/.config/inkscape/extensions/textext/default_packages.tex"
       ns1:text="$P_i = - \\left( \\mathbf{T},\\mathbf{D} \\right)$"
       ns1:pdfconverter="pdf2svg"
       ns1:texconverter="pdflatex"
       ns1:version="0.11.0"
       transform="matrix(1.240931,0,0,1.240931,-93.109786,-21.563755)">
      <g
         id="g4395">
        <g
           id="g4361"
           style="fill:#000000;fill-opacity:1">
          <path
             id="path4359"
             transform="translate(148.712,134.765)"
             d="M 3.015625,-3.15625 H 4.71875 c 1.40625,0 2.796875,-1.03125 2.796875,-2.140625 0,-0.78125 -0.65625,-1.515625 -1.96875,-1.515625 h -3.21875 c -0.1875,0 -0.296875,0 -0.296875,0.1875 0,0.125 0.078125,0.125 0.28125,0.125 0.125,0 0.3125,0.015625 0.421875,0.015625 0.171875,0.03125 0.21875,0.046875 0.21875,0.171875 0,0.03125 0,0.0625 -0.03125,0.1875 l -1.34375,5.34375 c -0.09375,0.390625 -0.109375,0.46875 -0.90625,0.46875 -0.15625,0 -0.265625,0 -0.265625,0.1875 C 0.40625,0 0.515625,0 0.546875,0 0.828125,0 1.53125,-0.03125 1.8125,-0.03125 c 0.21875,0 0.4375,0.015625 0.640625,0.015625 0.21875,0 0.4375,0.015625 0.640625,0.015625 0.078125,0 0.203125,0 0.203125,-0.203125 0,-0.109375 -0.09375,-0.109375 -0.28125,-0.109375 -0.359375,0 -0.640625,0 -0.640625,-0.171875 0,-0.0625 0.015625,-0.109375 0.03125,-0.171875 z M 3.734375,-6.125 C 3.828125,-6.46875 3.84375,-6.5 4.28125,-6.5 h 0.953125 c 0.828125,0 1.359375,0.265625 1.359375,0.953125 0,0.390625 -0.203125,1.25 -0.59375,1.609375 -0.5,0.453125 -1.09375,0.53125 -1.53125,0.53125 H 3.0625 Z m 0,0"
             style="stroke:none;stroke-width:0"
             inkscape:connector-curvature="0" />
        </g>
        <g
           id="g4365"
           style="fill:#000000;fill-opacity:1">
          <path
             id="path4363"
             transform="translate(155.108,136.259)"
             d="m 2.265625,-4.359375 c 0,-0.109375 -0.09375,-0.265625 -0.28125,-0.265625 -0.1875,0 -0.390625,0.1875 -0.390625,0.390625 0,0.109375 0.078125,0.265625 0.28125,0.265625 0.1875,0 0.390625,-0.203125 0.390625,-0.390625 z M 0.84375,-0.8125 c -0.03125,0.09375 -0.0625,0.171875 -0.0625,0.296875 0,0.328125 0.265625,0.578125 0.65625,0.578125 0.6875,0 1,-0.953125 1,-1.0625 0,-0.09375 -0.09375,-0.09375 -0.109375,-0.09375 -0.09375,0 -0.109375,0.046875 -0.140625,0.125 -0.15625,0.5625 -0.453125,0.84375 -0.734375,0.84375 -0.140625,0 -0.171875,-0.09375 -0.171875,-0.25 0,-0.15625 0.046875,-0.28125 0.109375,-0.4375 C 1.46875,-1 1.546875,-1.1875 1.609375,-1.375 1.671875,-1.546875 1.9375,-2.171875 1.953125,-2.265625 1.984375,-2.328125 2,-2.40625 2,-2.484375 2,-2.8125 1.71875,-3.078125 1.34375,-3.078125 0.640625,-3.078125 0.328125,-2.125 0.328125,-2 c 0,0.078125 0.09375,0.078125 0.125,0.078125 0.09375,0 0.09375,-0.03125 0.125,-0.109375 C 0.75,-2.625 1.0625,-2.875 1.3125,-2.875 c 0.109375,0 0.171875,0.046875 0.171875,0.234375 0,0.171875 -0.03125,0.265625 -0.203125,0.703125 z m 0,0"
             style="stroke:none;stroke-width:0"
             inkscape:connector-curvature="0" />
        </g>
        <g
           id="g4369"
           style="fill:#000000;fill-opacity:1">
          <path
             id="path4367"
             transform="translate(161.193,134.765)"
             d="m 6.84375,-3.265625 c 0.15625,0 0.34375,0 0.34375,-0.1875 C 7.1875,-3.65625 7,-3.65625 6.859375,-3.65625 h -5.96875 c -0.140625,0 -0.328125,0 -0.328125,0.203125 0,0.1875 0.1875,0.1875 0.328125,0.1875 z m 0.015625,1.9375 c 0.140625,0 0.328125,0 0.328125,-0.203125 0,-0.1875 -0.1875,-0.1875 -0.34375,-0.1875 H 0.890625 c -0.140625,0 -0.328125,0 -0.328125,0.1875 0,0.203125 0.1875,0.203125 0.328125,0.203125 z m 0,0"
             style="stroke:none;stroke-width:0"
             inkscape:connector-curvature="0" />
        </g>
        <g
           id="g4373"
           style="fill:#000000;fill-opacity:1">
          <path
             id="path4371"
             transform="translate(171.709,134.765)"
             d="m 6.5625,-2.296875 c 0.171875,0 0.359375,0 0.359375,-0.203125 0,-0.1875 -0.1875,-0.1875 -0.359375,-0.1875 H 1.171875 c -0.171875,0 -0.34375,0 -0.34375,0.1875 0,0.203125 0.171875,0.203125 0.34375,0.203125 z m 0,0"
             style="stroke:none;stroke-width:0"
             inkscape:connector-curvature="0" />
        </g>
        <g
           id="g4377"
           style="fill:#000000;fill-opacity:1">
          <path
             id="path4375"
             transform="translate(181.118,134.765)"
             d="m 3.296875,2.390625 c 0,-0.03125 0,-0.046875 -0.171875,-0.21875 C 1.890625,0.921875 1.5625,-0.96875 1.5625,-2.5 c 0,-1.734375 0.375,-3.46875 1.609375,-4.703125 0.125,-0.125 0.125,-0.140625 0.125,-0.171875 0,-0.078125 -0.03125,-0.109375 -0.09375,-0.109375 -0.109375,0 -1,0.6875 -1.59375,1.953125 -0.5,1.09375 -0.625,2.203125 -0.625,3.03125 0,0.78125 0.109375,1.984375 0.65625,3.125 C 2.25,1.84375 3.09375,2.5 3.203125,2.5 c 0.0625,0 0.09375,-0.03125 0.09375,-0.109375 z m 0,0"
             style="stroke:none;stroke-width:0"
             inkscape:connector-curvature="0" />
        </g>
        <g
           id="g4381"
           style="fill:#000000;fill-opacity:1">
          <path
             id="path4379"
             transform="translate(184.992,134.765)"
             d="M 7.34375,-6.734375 H 0.625 l -0.203125,2.40625 h 0.46875 c 0.09375,-1.125 0.1875,-1.9375 1.625,-1.9375 H 3.28125 V -0.46875 H 1.75 V 0 c 0.546875,-0.03125 1.65625,-0.03125 2.234375,-0.03125 0.59375,0 1.703125,0 2.234375,0.03125 V -0.46875 H 4.6875 v -5.796875 h 0.765625 c 1.421875,0 1.53125,0.796875 1.625,1.9375 h 0.46875 z m 0,0"
             style="stroke:none;stroke-width:0"
             inkscape:connector-curvature="0" />
        </g>
        <g
           id="g4385"
           style="fill:#000000;fill-opacity:1">
          <path
             id="path4383"
             transform="translate(192.962,134.765)"
             d="m 2.03125,-0.015625 c 0,-0.65625 -0.25,-1.046875 -0.640625,-1.046875 -0.328125,0 -0.53125,0.25 -0.53125,0.53125 C 0.859375,-0.265625 1.0625,0 1.390625,0 1.5,0 1.640625,-0.046875 1.734375,-0.125 1.765625,-0.15625 1.78125,-0.15625 1.78125,-0.15625 c 0.015625,0 0.015625,0 0.015625,0.140625 0,0.75 -0.34375,1.34375 -0.671875,1.671875 -0.109375,0.109375 -0.109375,0.125 -0.109375,0.15625 0,0.078125 0.046875,0.109375 0.09375,0.109375 0.109375,0 0.921875,-0.765625 0.921875,-1.9375 z m 0,0"
             style="stroke:none;stroke-width:0"
             inkscape:connector-curvature="0" />
        </g>
        <g
           id="g4389"
           style="fill:#000000;fill-opacity:1">
          <path
             id="path4387"
             transform="translate(197.39,134.765)"
             d="m 1.46875,-6.375 v 5.90625 H 0.390625 V 0 H 4.6875 c 1.96875,0 3.453125,-1.21875 3.453125,-3.359375 0,-2.1875 -1.484375,-3.484375 -3.46875,-3.484375 H 0.390625 V -6.375 Z m 1.359375,5.90625 V -6.375 H 4.28125 c 0.65625,0 1.484375,0.1875 1.96875,0.890625 0.34375,0.515625 0.421875,1.1875 0.421875,2.109375 0,1.09375 -0.109375,1.625 -0.4375,2.0625 -0.46875,0.6875 -1.34375,0.84375 -1.953125,0.84375 z m 0,0"
             style="stroke:none;stroke-width:0"
             inkscape:connector-curvature="0" />
        </g>
        <g
           id="g4393"
           style="fill:#000000;fill-opacity:1">
          <path
             id="path4391"
             transform="translate(206.177,134.765)"
             d="m 2.875,-2.5 c 0,-0.765625 -0.109375,-1.96875 -0.65625,-3.109375 -0.59375,-1.21875 -1.453125,-1.875 -1.546875,-1.875 -0.0625,0 -0.109375,0.046875 -0.109375,0.109375 0,0.03125 0,0.046875 0.1875,0.234375 0.984375,0.984375 1.546875,2.5625 1.546875,4.640625 0,1.71875 -0.359375,3.46875 -1.59375,4.71875 C 0.5625,2.34375 0.5625,2.359375 0.5625,2.390625 0.5625,2.453125 0.609375,2.5 0.671875,2.5 0.765625,2.5 1.671875,1.8125 2.25,0.546875 2.765625,-0.546875 2.875,-1.65625 2.875,-2.5 Z m 0,0"
             style="stroke:none;stroke-width:0"
             inkscape:connector-curvature="0" />
        </g>
      </g>
    </g>
  </g>
</svg>
