<?xml version="1.0" encoding="UTF-8" standalone="no"?>
<!-- Created with Inkscape (http://www.inkscape.org/) -->

<svg
   xmlns:ns0="http://www.iki.fi/pav/software/textext/"
   xmlns:dc="http://purl.org/dc/elements/1.1/"
   xmlns:cc="http://creativecommons.org/ns#"
   xmlns:rdf="http://www.w3.org/1999/02/22-rdf-syntax-ns#"
   xmlns:svg="http://www.w3.org/2000/svg"
   xmlns="http://www.w3.org/2000/svg"
   xmlns:sodipodi="http://sodipodi.sourceforge.net/DTD/sodipodi-0.dtd"
   xmlns:inkscape="http://www.inkscape.org/namespaces/inkscape"
   sodipodi:docname="rve_deformacion.svg"
   inkscape:version="0.92.3 (2405546, 2018-03-11)"
   version="1.1"
   id="svg2"
   viewBox="0 0 284.32221 123.26909"
   height="34.789276mm"
   width="80.242043mm">
  <sodipodi:namedview
     inkscape:snap-nodes="true"
     inkscape:bbox-nodes="true"
     inkscape:snap-bbox="true"
     fit-margin-bottom="0"
     fit-margin-right="0"
     fit-margin-left="0"
     fit-margin-top="0"
     showguides="false"
     inkscape:snap-global="false"
     inkscape:object-nodes="true"
     inkscape:snap-text-baseline="false"
     inkscape:snap-center="true"
     inkscape:window-maximized="1"
     inkscape:window-y="0"
     inkscape:window-x="0"
     inkscape:window-height="714"
     inkscape:window-width="1366"
     showgrid="true"
     inkscape:current-layer="svg2"
     inkscape:document-units="mm"
     inkscape:cy="29.18795"
     inkscape:cx="64.477864"
     inkscape:zoom="1.4142136"
     inkscape:pageshadow="2"
     inkscape:pageopacity="1"
     borderopacity="1.0"
     bordercolor="#666666"
     pagecolor="#ffffff"
     id="base">
    <inkscape:grid
       originy="314.116"
       originx="-264.98846"
       spacingy="3.5433071"
       spacingx="3.5433071"
       units="mm"
       id="grid4399"
       type="xygrid" />
  </sodipodi:namedview>
  <defs
     id="defs4">
    <marker
       inkscape:isstock="true"
       style="overflow:visible"
       id="marker6050"
       refX="0"
       refY="0"
       orient="auto"
       inkscape:stockid="Arrow2Mend">
      <path
         inkscape:connector-curvature="0"
         transform="scale(-0.6,-0.6)"
         d="M 8.7185878,4.0337352 -2.2072895,0.01601326 8.7185884,-4.0017078 c -1.7454984,2.3720609 -1.7354408,5.6174519 -6e-7,8.035443 z"
         style="fill:#000000;fill-opacity:1;fill-rule:evenodd;stroke:#000000;stroke-width:0.625;stroke-linejoin:round;stroke-opacity:1"
         id="path6052" />
    </marker>
    <marker
       inkscape:collect="always"
       inkscape:stockid="Arrow2Mend"
       orient="auto"
       refY="0"
       refX="0"
       id="marker5099"
       style="overflow:visible"
       inkscape:isstock="true">
      <path
         id="path5101"
         style="fill:#000000;fill-opacity:1;fill-rule:evenodd;stroke:#000000;stroke-width:0.625;stroke-linejoin:round;stroke-opacity:1"
         d="M 8.7185878,4.0337352 -2.2072895,0.01601326 8.7185884,-4.0017078 c -1.7454984,2.3720609 -1.7354408,5.6174519 -6e-7,8.035443 z"
         transform="scale(-0.6,-0.6)"
         inkscape:connector-curvature="0" />
    </marker>
    <marker
       inkscape:isstock="true"
       style="overflow:visible"
       id="marker4836"
       refX="0"
       refY="0"
       orient="auto"
       inkscape:stockid="DotM">
      <path
         inkscape:connector-curvature="0"
         transform="matrix(0.4,0,0,0.4,2.96,0.4)"
         style="fill:#000000;fill-opacity:1;fill-rule:evenodd;stroke:#000000;stroke-width:1pt;stroke-opacity:1"
         d="m -2.5,-1 c 0,2.76 -2.24,5 -5,5 -2.76,0 -5,-2.24 -5,-5 0,-2.76 2.24,-5 5,-5 2.76,0 5,2.24 5,5 z"
         id="path4838" />
    </marker>
    <marker
       inkscape:isstock="true"
       style="overflow:visible"
       id="Arrow2Sstart"
       refX="0"
       refY="0"
       orient="auto"
       inkscape:stockid="Arrow2Sstart">
      <path
         inkscape:connector-curvature="0"
         transform="matrix(0.3,0,0,0.3,-0.69,0)"
         d="M 8.7185878,4.0337352 -2.2072895,0.01601326 8.7185884,-4.0017078 c -1.7454984,2.3720609 -1.7354408,5.6174519 -6e-7,8.035443 z"
         style="fill:#000000;fill-opacity:1;fill-rule:evenodd;stroke:#000000;stroke-width:0.625;stroke-linejoin:round;stroke-opacity:1"
         id="path4174" />
    </marker>
    <marker
       inkscape:isstock="true"
       style="overflow:visible"
       id="Arrow2Lend"
       refX="0"
       refY="0"
       orient="auto"
       inkscape:stockid="Arrow2Lend">
      <path
         inkscape:connector-curvature="0"
         transform="matrix(-1.1,0,0,-1.1,-1.1,0)"
         d="M 8.7185878,4.0337352 -2.2072895,0.01601326 8.7185884,-4.0017078 c -1.7454984,2.3720609 -1.7354408,5.6174519 -6e-7,8.035443 z"
         style="fill:#000000;fill-opacity:1;fill-rule:evenodd;stroke:#000000;stroke-width:0.625;stroke-linejoin:round;stroke-opacity:1"
         id="path4165" />
    </marker>
    <marker
       inkscape:isstock="true"
       style="overflow:visible"
       id="DotM"
       refX="0"
       refY="0"
       orient="auto"
       inkscape:stockid="DotM">
      <path
         inkscape:connector-curvature="0"
         transform="matrix(0.4,0,0,0.4,2.96,0.4)"
         style="fill:#000000;fill-opacity:1;fill-rule:evenodd;stroke:#000000;stroke-width:1pt;stroke-opacity:1"
         d="m -2.5,-1 c 0,2.76 -2.24,5 -5,5 -2.76,0 -5,-2.24 -5,-5 0,-2.76 2.24,-5 5,-5 2.76,0 5,2.24 5,5 z"
         id="path4208" />
    </marker>
    <marker
       inkscape:isstock="true"
       style="overflow:visible"
       id="Arrow1Mstart"
       refX="0"
       refY="0"
       orient="auto"
       inkscape:stockid="Arrow1Mstart">
      <path
         inkscape:connector-curvature="0"
         transform="matrix(0.4,0,0,0.4,4,0)"
         style="fill:#000000;fill-opacity:1;fill-rule:evenodd;stroke:#000000;stroke-width:1pt;stroke-opacity:1"
         d="M 0,0 5,-5 -12.5,0 5,5 0,0 Z"
         id="path4150" />
    </marker>
    <marker
       inkscape:isstock="true"
       inkscape:stockid="DistanceStart"
       orient="auto"
       refY="0"
       refX="0"
       id="DistanceStart"
       style="overflow:visible">
      <g
         style="fill:#000000;fill-opacity:1;stroke:#000000;stroke-opacity:1"
         id="g2300">
        <path
           inkscape:connector-curvature="0"
           id="path2306"
           d="M 0,0 2,0"
           style="fill:#000000;fill-opacity:1;stroke:#000000;stroke-width:1.14999998;stroke-linecap:square;stroke-opacity:1" />
        <path
           inkscape:connector-curvature="0"
           id="path2302"
           d="M 0,0 13,4 9,0 13,-4 0,0 Z"
           style="fill:#000000;fill-opacity:1;fill-rule:evenodd;stroke:#000000;stroke-opacity:1" />
        <path
           inkscape:connector-curvature="0"
           id="path2304"
           d="M 0,-4 0,40"
           style="fill:#000000;fill-opacity:1;stroke:#000000;stroke-width:1;stroke-linecap:square;stroke-opacity:1" />
      </g>
    </marker>
    <marker
       inkscape:isstock="true"
       style="overflow:visible"
       id="Arrow1Lend"
       refX="0"
       refY="0"
       orient="auto"
       inkscape:stockid="Arrow1Lend">
      <path
         inkscape:connector-curvature="0"
         transform="matrix(-0.8,0,0,-0.8,-10,0)"
         style="fill:#000000;fill-opacity:1;fill-rule:evenodd;stroke:#000000;stroke-width:1pt;stroke-opacity:1"
         d="M 0,0 5,-5 -12.5,0 5,5 0,0 Z"
         id="path4147" />
    </marker>
    <marker
       inkscape:isstock="true"
       style="overflow:visible"
       id="Arrow2Mend-3"
       refX="0"
       refY="0"
       orient="auto"
       inkscape:stockid="Arrow2Mend">
      <path
         transform="scale(-0.6,-0.6)"
         d="M 8.7185878,4.0337352 -2.2072895,0.01601326 8.7185884,-4.0017078 c -1.7454984,2.3720609 -1.7354408,5.6174519 -6e-7,8.035443 z"
         style="fill:#000000;fill-opacity:1;fill-rule:evenodd;stroke:#000000;stroke-width:0.625;stroke-linejoin:round;stroke-opacity:1"
         id="path4171-6"
         inkscape:connector-curvature="0" />
    </marker>
    <marker
       inkscape:isstock="true"
       style="overflow:visible"
       id="Arrow2Mend-7"
       refX="0"
       refY="0"
       orient="auto"
       inkscape:stockid="Arrow2Mend">
      <path
         inkscape:connector-curvature="0"
         transform="scale(-0.6,-0.6)"
         d="M 8.7185878,4.0337352 -2.2072895,0.01601326 8.7185884,-4.0017078 c -1.7454984,2.3720609 -1.7354408,5.6174519 -6e-7,8.035443 z"
         style="fill:#000000;fill-opacity:1;fill-rule:evenodd;stroke:#000000;stroke-width:0.625;stroke-linejoin:round;stroke-opacity:1"
         id="path4171-1" />
    </marker>
    <marker
       inkscape:isstock="true"
       style="overflow:visible"
       id="Arrow2Mend-7-1"
       refX="0"
       refY="0"
       orient="auto"
       inkscape:stockid="Arrow2Mend">
      <path
         inkscape:connector-curvature="0"
         transform="scale(-0.6,-0.6)"
         d="M 8.7185878,4.0337352 -2.2072895,0.01601326 8.7185884,-4.0017078 c -1.7454984,2.3720609 -1.7354408,5.6174519 -6e-7,8.035443 z"
         style="fill:#000000;fill-opacity:1;fill-rule:evenodd;stroke:#000000;stroke-width:0.625;stroke-linejoin:round;stroke-opacity:1"
         id="path4171-1-7" />
    </marker>
    <marker
       inkscape:isstock="true"
       style="overflow:visible"
       id="Arrow2Mend-7-9"
       refX="0"
       refY="0"
       orient="auto"
       inkscape:stockid="Arrow2Mend">
      <path
         inkscape:connector-curvature="0"
         transform="scale(-0.6,-0.6)"
         d="M 8.7185878,4.0337352 -2.2072895,0.01601326 8.7185884,-4.0017078 c -1.7454984,2.3720609 -1.7354408,5.6174519 -6e-7,8.035443 z"
         style="fill:#000000;fill-opacity:1;fill-rule:evenodd;stroke:#000000;stroke-width:0.625;stroke-linejoin:round;stroke-opacity:1"
         id="path4171-1-2" />
    </marker>
  </defs>
  <metadata
     id="metadata7">
    <rdf:RDF>
      <cc:Work
         rdf:about="">
        <dc:format>image/svg+xml</dc:format>
        <dc:type
           rdf:resource="http://purl.org/dc/dcmitype/StillImage" />
        <dc:title />
      </cc:Work>
    </rdf:RDF>
  </metadata>
  <g
     style="display:inline"
     transform="translate(-305.83635,-584.42976)"
     id="layer1"
     inkscape:groupmode="layer"
     inkscape:label="trazo_puntos">
    <path
       inkscape:connector-curvature="0"
       id="path4228-4"
       d="m 466.04476,677.04743 106.29922,0"
       style="color:#000000;clip-rule:nonzero;display:inline;overflow:visible;visibility:visible;opacity:1;isolation:auto;mix-blend-mode:normal;color-interpolation:sRGB;color-interpolation-filters:linearRGB;solid-color:#000000;solid-opacity:1;fill:none;fill-opacity:1;fill-rule:evenodd;stroke:#949494;stroke-width:1.06299198;stroke-linecap:butt;stroke-linejoin:miter;stroke-miterlimit:4;stroke-dasharray:1.06299198, 1.06299198;stroke-dashoffset:0;stroke-opacity:1;color-rendering:auto;image-rendering:auto;shape-rendering:auto;text-rendering:auto;enable-background:accumulate" />
    <path
       sodipodi:nodetypes="czzzzzzzc"
       inkscape:connector-curvature="0"
       id="path4353-1"
       d="m 466.04476,677.04743 c 0,0 6.13275,3.86291 10.62992,3.54331 4.49717,-0.3196 9.41216,-7.38302 14.17323,-7.08661 4.76107,0.29641 5.34899,6.53675 10.62992,7.08661 5.28093,0.54986 11.35611,-7.08661 17.71654,-7.08661 6.36043,0 12.43561,7.63647 17.71654,7.08661 5.28093,-0.54986 5.34899,-6.53675 10.62992,-7.08661 5.28093,-0.54986 13.21969,7.27365 17.71653,7.08661 4.49684,-0.18704 7.08662,-3.54331 7.08662,-3.54331"
       style="fill:none;fill-rule:evenodd;stroke:#949494;stroke-width:1.06299198;stroke-linecap:butt;stroke-linejoin:miter;stroke-miterlimit:4;stroke-dasharray:1.06299198, 1.06299198;stroke-dashoffset:0;stroke-opacity:1" />
    <path
       inkscape:connector-curvature="0"
       id="path4228-5-0"
       d="m 466.04476,677.04743 53.14961,-92.05782"
       style="color:#000000;clip-rule:nonzero;display:inline;overflow:visible;visibility:visible;opacity:1;isolation:auto;mix-blend-mode:normal;color-interpolation:sRGB;color-interpolation-filters:linearRGB;solid-color:#000000;solid-opacity:1;fill:none;fill-opacity:1;fill-rule:evenodd;stroke:#949494;stroke-width:1.06299198;stroke-linecap:butt;stroke-linejoin:miter;stroke-miterlimit:4;stroke-dasharray:1.06299198, 1.06299198;stroke-dashoffset:0;stroke-opacity:1;color-rendering:auto;image-rendering:auto;shape-rendering:auto;text-rendering:auto;enable-background:accumulate" />
    <path
       sodipodi:nodetypes="czzzc"
       inkscape:connector-curvature="0"
       id="path4304-1-7"
       d="m 466.04476,677.04743 c 0,0 1.01935,-8.85218 5.78968,-17.11463 4.77032,-8.26243 17.4933,-16.12604 23.85373,-27.14263 6.36043,-11.01658 6.80901,-25.9668 11.57934,-34.22924 4.77032,-8.26245 11.92686,-13.57132 11.92686,-13.57132"
       style="display:inline;fill:none;fill-rule:evenodd;stroke:#949494;stroke-width:1.06299198;stroke-linecap:butt;stroke-linejoin:miter;stroke-miterlimit:4;stroke-dasharray:1.06299198, 1.06299198;stroke-dashoffset:0;stroke-opacity:1" />
    <path
       sodipodi:nodetypes="czzzzzzzc"
       inkscape:connector-curvature="0"
       id="path4353-7-5"
       d="m 466.04448,677.04759 c 0,0 6.41176,-3.37966 8.38356,-7.43412 1.9718,-4.05446 -1.6878,-11.84268 0.94943,-15.81768 2.63723,-3.97501 8.33549,-1.364 11.45215,-5.66249 3.11665,-4.29848 -0.45913,-13.37797 2.72108,-18.88627 3.18022,-5.50829 12.83118,-6.95132 14.99546,-11.79967 2.16427,-4.84835 -2.9865,-7.90073 -0.82223,-12.74908 2.16427,-4.84835 12.90901,-7.81176 14.99545,-11.79966 2.08644,-3.9879 0.47471,-7.90885 0.47471,-7.90885"
       style="display:inline;fill:none;fill-rule:evenodd;stroke:#949494;stroke-width:1.06299198;stroke-linecap:butt;stroke-linejoin:miter;stroke-miterlimit:4;stroke-dasharray:1.06299198, 1.06299198;stroke-dashoffset:0;stroke-opacity:1" />
    <path
       inkscape:connector-curvature="0"
       id="path4228-5-4-8"
       d="m 572.34398,677.04743 -53.1496,-92.05784"
       style="color:#000000;clip-rule:nonzero;display:inline;overflow:visible;visibility:visible;opacity:1;isolation:auto;mix-blend-mode:normal;color-interpolation:sRGB;color-interpolation-filters:linearRGB;solid-color:#000000;solid-opacity:1;fill:none;fill-opacity:1;fill-rule:evenodd;stroke:#949494;stroke-width:1.06299198;stroke-linecap:butt;stroke-linejoin:miter;stroke-miterlimit:4;stroke-dasharray:1.06299198, 1.06299198;stroke-dashoffset:0;stroke-opacity:1;color-rendering:auto;image-rendering:auto;shape-rendering:auto;text-rendering:auto;enable-background:accumulate" />
    <path
       sodipodi:nodetypes="czzzc"
       inkscape:connector-curvature="0"
       id="path4304-1-3-7"
       d="m 572.34398,677.04743 c 0,0 -7.15654,-5.30888 -11.92686,-13.57133 -4.77032,-8.26243 -5.21891,-23.21266 -11.57935,-34.22925 -6.36042,-11.01658 -19.0834,-18.88018 -23.85372,-27.14262 -4.77032,-8.26246 -5.78967,-17.11464 -5.78967,-17.11464"
       style="display:inline;fill:none;fill-rule:evenodd;stroke:#949494;stroke-width:1.06299198;stroke-linecap:butt;stroke-linejoin:miter;stroke-miterlimit:4;stroke-dasharray:1.06299198, 1.06299198;stroke-dashoffset:0;stroke-opacity:1" />
    <path
       sodipodi:nodetypes="czzzzzzzc"
       inkscape:connector-curvature="0"
       id="path4353-7-1-0"
       d="m 572.49219,677.30478 c 0,0 0.27901,-7.24258 -2.24635,-10.97743 -2.52537,-3.73486 -11.09997,-4.45967 -13.2238,-8.73107 -2.12385,-4.27142 2.98648,-7.90075 0.82221,-12.7491 -2.16426,-4.84834 -11.81522,-6.29137 -14.99545,-11.79966 -3.18021,-5.5083 0.39557,-14.58779 -2.72108,-18.88629 -3.11666,-4.29848 -8.33548,-1.36398 -11.45214,-5.66246 -3.11666,-4.29849 -0.31068,-15.08542 -2.72108,-18.88628 -2.4104,-3.80086 -6.61191,-4.36554 -6.61191,-4.36554"
       style="display:inline;fill:none;fill-rule:evenodd;stroke:#949494;stroke-width:1.06299198;stroke-linecap:butt;stroke-linejoin:miter;stroke-miterlimit:4;stroke-dasharray:1.06299198, 1.06299198;stroke-dashoffset:0;stroke-opacity:1" />
    <path
       sodipodi:nodetypes="czzzc"
       inkscape:connector-curvature="0"
       id="path4304-9"
       d="m 466.04476,677.04743 c 0,0 8.17589,-3.54331 17.71653,-3.54331 9.54065,0 22.71221,7.08662 35.43308,7.08662 12.72086,0 25.89242,-7.08662 35.43307,-7.08662 9.54065,0 17.71654,3.54331 17.71654,3.54331"
       style="display:inline;fill:none;fill-rule:evenodd;stroke:#949494;stroke-width:1.06299198;stroke-linecap:butt;stroke-linejoin:miter;stroke-miterlimit:4;stroke-dasharray:1.06299198, 1.06299198;stroke-dashoffset:0;stroke-opacity:1" />
  </g>
  <g
     transform="translate(-0.1433698,-148.91536)"
     style="display:inline"
     inkscape:label="trazo_continuo"
     id="layer2"
     inkscape:groupmode="layer">
    <path
       inkscape:connector-curvature="0"
       id="path4228-5-3"
       d="m 466.04476,677.04743 88.01121,-92.16998"
       style="color:#000000;clip-rule:nonzero;display:inline;overflow:visible;visibility:visible;opacity:1;isolation:auto;mix-blend-mode:normal;color-interpolation:sRGB;color-interpolation-filters:linearRGB;solid-color:#000000;solid-opacity:1;fill:none;fill-opacity:1;fill-rule:evenodd;stroke:#6f6f6f;stroke-width:1.0629921;stroke-linecap:butt;stroke-linejoin:miter;stroke-miterlimit:4;stroke-dasharray:none;stroke-dashoffset:0;stroke-opacity:1;color-rendering:auto;image-rendering:auto;shape-rendering:auto;text-rendering:auto;enable-background:accumulate"
       transform="translate(-305.69298,-435.5144)" />
    <path
       sodipodi:nodetypes="czzzc"
       inkscape:connector-curvature="0"
       id="path4304-1-1"
       d="m 466.04476,677.04743 c 0,0 6.64114,-11.5754 14.54041,-19.84791 7.89923,-8.27251 22.59656,-15.4938 33.12889,-26.52381 10.53233,-11.03 16.05499,-23.82191 23.95424,-32.09441 7.89925,-8.27252 16.38767,-13.70385 16.38767,-13.70385"
       style="fill:none;fill-rule:evenodd;stroke:#6f6f6f;stroke-width:1.0629921;stroke-linecap:butt;stroke-linejoin:miter;stroke-miterlimit:4;stroke-dasharray:none;stroke-dashoffset:0;stroke-opacity:1"
       transform="translate(-305.69298,-435.5144)" />
    <path
       sodipodi:nodetypes="czzzzzzzc"
       inkscape:connector-curvature="0"
       id="path4353-7-8"
       d="m 466.04437,677.04754 c 0,0 6.53793,-6.83897 9.93094,-10.98358 3.393,-4.1446 5.6981,-7.7494 9.94653,-11.65022 4.24845,-3.90083 8.71269,-4.21912 13.65361,-8.37625 4.94092,-4.15712 5.78733,-13.33905 11.05349,-18.85407 5.26617,-5.515 12.35841,-6.69164 16.16227,-11.69249 3.80385,-5.00084 2.61967,-7.70854 6.42352,-12.70938 3.80384,-5.00085 13.51632,-6.58921 17.04612,-10.63182 3.52981,-4.04263 3.79473,-7.27217 3.79473,-7.27217"
       style="fill:none;fill-rule:evenodd;stroke:#6f6f6f;stroke-width:1.0629921;stroke-linecap:butt;stroke-linejoin:miter;stroke-miterlimit:4;stroke-dasharray:none;stroke-dashoffset:0;stroke-opacity:1"
       transform="translate(-305.69298,-435.5144)" />
    <path
       inkscape:connector-curvature="0"
       id="path4228"
       d="m 306.59594,677.04743 106.29922,0"
       style="color:#000000;clip-rule:nonzero;display:inline;overflow:visible;visibility:visible;opacity:1;isolation:auto;mix-blend-mode:normal;color-interpolation:sRGB;color-interpolation-filters:linearRGB;solid-color:#000000;solid-opacity:1;fill:none;fill-opacity:1;fill-rule:evenodd;stroke:#6f6f6f;stroke-width:1.0629921;stroke-linecap:butt;stroke-linejoin:miter;stroke-miterlimit:4;stroke-dasharray:none;stroke-dashoffset:0;stroke-opacity:1;color-rendering:auto;image-rendering:auto;shape-rendering:auto;text-rendering:auto;enable-background:accumulate"
       transform="translate(-305.69298,-435.5144)" />
    <path
       sodipodi:nodetypes="czzzc"
       inkscape:connector-curvature="0"
       id="path4304"
       d="m 306.59594,677.04743 c 0,0 8.17589,-3.54331 17.71653,-3.54331 9.54065,0 22.71221,7.08662 35.43308,7.08662 12.72086,0 25.89242,-7.08662 35.43307,-7.08662 9.54065,0 17.71654,3.54331 17.71654,3.54331"
       style="display:inline;fill:none;fill-rule:evenodd;stroke:#6f6f6f;stroke-width:1.0629921;stroke-linecap:butt;stroke-linejoin:miter;stroke-miterlimit:4;stroke-dasharray:none;stroke-opacity:1"
       transform="translate(-305.69298,-435.5144)" />
    <path
       sodipodi:nodetypes="czzzzzzzc"
       inkscape:connector-curvature="0"
       id="path4353"
       d="m 306.59594,677.04743 c 0,0 6.13275,3.86291 10.62992,3.54331 4.49717,-0.3196 9.41216,-7.38302 14.17323,-7.08661 4.76107,0.29641 5.34899,6.53675 10.62992,7.08661 5.28093,0.54986 11.35611,-7.08661 17.71654,-7.08661 6.36043,0 12.43561,7.63647 17.71654,7.08661 5.28093,-0.54986 5.34899,-6.53675 10.62992,-7.08661 5.28093,-0.54986 13.21969,7.27365 17.71653,7.08661 4.49684,-0.18704 7.08662,-3.54331 7.08662,-3.54331"
       style="display:inline;fill:none;fill-rule:evenodd;stroke:#6f6f6f;stroke-width:1.0629921;stroke-linecap:butt;stroke-linejoin:miter;stroke-miterlimit:4;stroke-dasharray:none;stroke-opacity:1"
       transform="translate(-305.69298,-435.5144)" />
    <path
       inkscape:connector-curvature="0"
       id="path4228-5"
       d="m 306.59594,677.04743 53.14961,-92.05782"
       style="color:#000000;clip-rule:nonzero;display:inline;overflow:visible;visibility:visible;opacity:1;isolation:auto;mix-blend-mode:normal;color-interpolation:sRGB;color-interpolation-filters:linearRGB;solid-color:#000000;solid-opacity:1;fill:none;fill-opacity:1;fill-rule:evenodd;stroke:#6f6f6f;stroke-width:1.0629921;stroke-linecap:butt;stroke-linejoin:miter;stroke-miterlimit:4;stroke-dasharray:none;stroke-dashoffset:0;stroke-opacity:1;color-rendering:auto;image-rendering:auto;shape-rendering:auto;text-rendering:auto;enable-background:accumulate"
       transform="translate(-305.69298,-435.5144)" />
    <path
       sodipodi:nodetypes="czzzc"
       inkscape:connector-curvature="0"
       id="path4304-1"
       d="m 306.59594,677.04743 c 0,0 1.01935,-8.85218 5.78968,-17.11463 4.77032,-8.26243 17.4933,-16.12604 23.85373,-27.14263 6.36043,-11.01658 6.80901,-25.9668 11.57934,-34.22924 4.77032,-8.26245 11.92686,-13.57132 11.92686,-13.57132"
       style="display:inline;fill:none;fill-rule:evenodd;stroke:#6f6f6f;stroke-width:1.0629921;stroke-linecap:butt;stroke-linejoin:miter;stroke-miterlimit:4;stroke-dasharray:none;stroke-opacity:1"
       transform="translate(-305.69298,-435.5144)" />
    <path
       sodipodi:nodetypes="czzzzzzzc"
       inkscape:connector-curvature="0"
       id="path4353-7"
       d="m 306.59566,677.04759 c 0,0 6.41176,-3.37966 8.38356,-7.43412 1.9718,-4.05446 -1.6878,-11.84268 0.94943,-15.81768 2.63723,-3.97501 8.33549,-1.364 11.45215,-5.66249 3.11665,-4.29848 -0.45913,-13.37797 2.72108,-18.88627 3.18022,-5.50829 12.83118,-6.95132 14.99546,-11.79967 2.16427,-4.84835 -2.9865,-7.90073 -0.82223,-12.74908 2.16427,-4.84835 12.90901,-7.81176 14.99545,-11.79966 2.08644,-3.9879 0.47471,-7.90885 0.47471,-7.90885"
       style="display:inline;fill:none;fill-rule:evenodd;stroke:#6f6f6f;stroke-width:1.0629921;stroke-linecap:butt;stroke-linejoin:miter;stroke-miterlimit:4;stroke-dasharray:none;stroke-opacity:1"
       transform="translate(-305.69298,-435.5144)" />
    <path
       inkscape:connector-curvature="0"
       id="path4228-5-4"
       d="m 412.89516,677.04743 -53.1496,-92.05784"
       style="color:#000000;clip-rule:nonzero;display:inline;overflow:visible;visibility:visible;opacity:1;isolation:auto;mix-blend-mode:normal;color-interpolation:sRGB;color-interpolation-filters:linearRGB;solid-color:#000000;solid-opacity:1;fill:none;fill-opacity:1;fill-rule:evenodd;stroke:#6f6f6f;stroke-width:1.0629921;stroke-linecap:butt;stroke-linejoin:miter;stroke-miterlimit:4;stroke-dasharray:none;stroke-dashoffset:0;stroke-opacity:1;color-rendering:auto;image-rendering:auto;shape-rendering:auto;text-rendering:auto;enable-background:accumulate"
       transform="translate(-305.69298,-435.5144)" />
    <path
       sodipodi:nodetypes="czzzc"
       inkscape:connector-curvature="0"
       id="path4304-1-3"
       d="m 412.89516,677.04743 c 0,0 -7.15654,-5.30888 -11.92686,-13.57133 -4.77032,-8.26243 -5.21891,-23.21266 -11.57935,-34.22925 -6.36042,-11.01658 -19.0834,-18.88018 -23.85372,-27.14262 -4.77032,-8.26246 -5.78967,-17.11464 -5.78967,-17.11464"
       style="display:inline;fill:none;fill-rule:evenodd;stroke:#6f6f6f;stroke-width:1.0629921;stroke-linecap:butt;stroke-linejoin:miter;stroke-miterlimit:4;stroke-dasharray:none;stroke-opacity:1"
       transform="translate(-305.69298,-435.5144)" />
    <path
       sodipodi:nodetypes="czzzzzzzc"
       inkscape:connector-curvature="0"
       id="path4353-7-1"
       d="m 413.04337,677.30478 c 0,0 0.27901,-7.24258 -2.24635,-10.97743 -2.52537,-3.73486 -11.09997,-4.45967 -13.2238,-8.73107 -2.12385,-4.27142 2.98648,-7.90075 0.82221,-12.7491 -2.16426,-4.84834 -11.81522,-6.29137 -14.99545,-11.79966 -3.18021,-5.5083 0.39557,-14.58779 -2.72108,-18.88629 -3.11666,-4.29848 -8.33548,-1.36398 -11.45214,-5.66246 -3.11666,-4.29849 -0.31068,-15.08542 -2.72108,-18.88628 -2.4104,-3.80086 -6.61191,-4.36554 -6.61191,-4.36554"
       style="display:inline;fill:none;fill-rule:evenodd;stroke:#6f6f6f;stroke-width:1.0629921;stroke-linecap:butt;stroke-linejoin:miter;stroke-miterlimit:4;stroke-dasharray:none;stroke-opacity:1"
       transform="translate(-305.69298,-435.5144)" />
    <path
       inkscape:connector-curvature="0"
       id="path4228-5-3-3"
       d="M 283.95548,271.78192 248.13954,149.47699"
       style="color:#000000;clip-rule:nonzero;display:inline;overflow:visible;visibility:visible;opacity:1;isolation:auto;mix-blend-mode:normal;color-interpolation:sRGB;color-interpolation-filters:linearRGB;solid-color:#000000;solid-opacity:1;fill:none;fill-opacity:1;fill-rule:evenodd;stroke:#6f6f6f;stroke-width:1.0629921;stroke-linecap:butt;stroke-linejoin:miter;stroke-miterlimit:4;stroke-dasharray:none;stroke-dashoffset:0;stroke-opacity:1;color-rendering:auto;image-rendering:auto;shape-rendering:auto;text-rendering:auto;enable-background:accumulate" />
    <path
       sodipodi:nodetypes="czzzc"
       inkscape:connector-curvature="0"
       id="path4304-1-1-8"
       d="m 283.95548,271.78192 c 0,0 -6.70402,-11.53909 -9.91859,-22.51632 -3.21459,-10.97719 -2.11975,-27.31609 -6.40585,-41.95236 -4.28609,-14.63627 -12.60288,-25.81499 -15.81745,-36.79219 -3.21459,-10.97721 -3.67405,-21.04406 -3.67405,-21.04406"
       style="display:inline;fill:none;fill-rule:evenodd;stroke:#6f6f6f;stroke-width:1.0629921;stroke-linecap:butt;stroke-linejoin:miter;stroke-miterlimit:4;stroke-dasharray:none;stroke-dashoffset:0;stroke-opacity:1" />
    <path
       sodipodi:nodetypes="czzzzzzzc"
       inkscape:connector-curvature="0"
       id="path4353-7-8-9"
       d="m 283.95538,271.78231 c 0,0 -2.65376,-9.08149 -4.54659,-14.09223 -1.89283,-5.01073 -3.86213,-8.8094 -5.11612,-14.43906 -1.25399,-5.62968 0.70248,-9.65497 -0.42724,-16.0125 -1.12971,-6.35752 -8.65829,-11.6815 -10.80136,-18.99964 -2.14305,-7.31813 0.38407,-14.04851 -2.04486,-19.84318 -2.42893,-5.79465 -5.36596,-6.12297 -7.79489,-11.91762 -2.42894,-5.79465 1.05174,-15.00008 -0.68436,-20.07828 -1.73612,-5.07822 -4.40052,-6.92242 -4.40052,-6.92242"
       style="display:inline;fill:none;fill-rule:evenodd;stroke:#6f6f6f;stroke-width:1.0629921;stroke-linecap:butt;stroke-linejoin:miter;stroke-miterlimit:4;stroke-dasharray:none;stroke-dashoffset:0;stroke-opacity:1" />
    <path
       inkscape:connector-curvature="0"
       id="path4228-5-3-3-5"
       d="M 284.30461,271.65291 160.47746,241.51796"
       style="color:#000000;clip-rule:nonzero;display:inline;overflow:visible;visibility:visible;opacity:1;isolation:auto;mix-blend-mode:normal;color-interpolation:sRGB;color-interpolation-filters:linearRGB;solid-color:#000000;solid-opacity:1;fill:none;fill-opacity:1;fill-rule:evenodd;stroke:#6f6f6f;stroke-width:1.0629921;stroke-linecap:butt;stroke-linejoin:miter;stroke-miterlimit:4;stroke-dasharray:none;stroke-dashoffset:0;stroke-opacity:1;color-rendering:auto;image-rendering:auto;shape-rendering:auto;text-rendering:auto;enable-background:accumulate" />
    <path
       sodipodi:nodetypes="czzzc"
       inkscape:connector-curvature="0"
       id="path4304-1-1-8-5"
       d="m 284.30461,271.65291 c 0,0 -13.34516,0.0363 -24.459,-2.66841 -11.11382,-2.70468 -24.7163,-11.82229 -39.53474,-15.42855 -14.81842,-3.60628 -28.65787,-1.99308 -39.77169,-4.69779 -11.11384,-2.70468 -20.06172,-7.3402 -20.06172,-7.3402"
       style="display:inline;fill:none;fill-rule:evenodd;stroke:#6f6f6f;stroke-width:1.0629921;stroke-linecap:butt;stroke-linejoin:miter;stroke-miterlimit:4;stroke-dasharray:none;stroke-dashoffset:0;stroke-opacity:1" />
    <path
       sodipodi:nodetypes="czzzzzzzc"
       inkscape:connector-curvature="0"
       id="path4353-7-8-9-3"
       d="m 284.3049,271.65319 c 0,0 -9.19168,-2.24252 -14.47753,-3.10865 -5.28583,-0.86613 -9.56023,-1.06 -15.06265,-2.78884 -5.50244,-1.72886 -8.01021,-5.43586 -14.08085,-7.63625 -6.07063,-2.20041 -14.44562,1.65755 -21.85485,-0.14557 -7.40921,-1.80313 -11.97433,-7.35687 -18.20713,-8.15069 -6.23278,-0.79381 -7.98563,1.58557 -14.21841,0.79176 -6.23278,-0.7938 -12.46458,-8.41087 -17.73048,-9.44647 -5.26593,-1.03558 -8.19525,0.34976 -8.19525,0.34976"
       style="display:inline;fill:none;fill-rule:evenodd;stroke:#6f6f6f;stroke-width:1.0629921;stroke-linecap:butt;stroke-linejoin:miter;stroke-miterlimit:4;stroke-dasharray:none;stroke-dashoffset:0;stroke-opacity:1" />
    <path
       sodipodi:nodetypes="cc"
       inkscape:connector-curvature="0"
       id="path6042"
       d="m 107.20215,188.38341 c 19.76392,-11.77248 37.15087,-9.87733 53.14961,0"
       style="fill:none;fill-rule:evenodd;stroke:#000000;stroke-width:1.06299213;stroke-linecap:butt;stroke-linejoin:miter;stroke-opacity:1;stroke-miterlimit:4;stroke-dasharray:3.18897638, 1.06299213000000004;stroke-dashoffset:0;marker-end:url(#marker6050)" />
  </g>
  <g
     transform="translate(-0.1433698,-148.91536)"
     style="display:inline"
     inkscape:label="flechas"
     id="layer3"
     inkscape:groupmode="layer">
    <path
       inkscape:export-ydpi="90"
       inkscape:export-xdpi="90"
       inkscape:connector-curvature="0"
       id="path4435-7"
       d="m 306.59594,677.04743 21.25984,-35.43307"
       style="display:inline;fill:none;fill-rule:evenodd;stroke:#000000;stroke-width:1.77165353;stroke-linecap:butt;stroke-linejoin:miter;stroke-miterlimit:4;stroke-dasharray:none;stroke-opacity:1;marker-end:url(#Arrow2Mend-7)"
       transform="translate(-305.69298,-435.5144)" />
    <path
       inkscape:export-ydpi="90"
       inkscape:export-xdpi="90"
       inkscape:connector-curvature="0"
       id="path4435-7-3"
       d="m 466.04476,677.04743 34.92641,-35.29094"
       style="color:#000000;clip-rule:nonzero;display:inline;overflow:visible;visibility:visible;opacity:1;isolation:auto;mix-blend-mode:normal;color-interpolation:sRGB;color-interpolation-filters:linearRGB;solid-color:#000000;solid-opacity:1;fill:none;fill-opacity:1;fill-rule:evenodd;stroke:#000000;stroke-width:1.77165353;stroke-linecap:butt;stroke-linejoin:miter;stroke-miterlimit:4;stroke-dasharray:none;stroke-dashoffset:0;stroke-opacity:1;marker-end:url(#marker5099);color-rendering:auto;image-rendering:auto;shape-rendering:auto;text-rendering:auto;enable-background:accumulate"
       transform="translate(-305.69298,-435.5144)" />
    <g
       id="g5024"
       ns0:jacobian_sqrt="1.5"
       inkscapeversion="0.91"
       ns0:alignment="middle center"
       ns0:scale="0.8"
       ns0:preamble="/home/dancab/.config/inkscape/extensions/textext/default_packages.tex"
       ns0:text="$\\mathbf{a}_0$"
       ns0:pdfconverter="pdf2svg"
       ns0:texconverter="pdflatex"
       ns0:version="0.9.1"
       transform="matrix(1.5,0,0,1.8916752,-195.85047,-39.588815)">
      <g
         id="surface1">
        <g
           id="g5027"
           style="fill:#000000;fill-opacity:1">
          <path
             id="path5029"
             transform="translate(148.712,134.765)"
             d="m 3.734375,-0.765625 c 0,0.3125 0,0.765625 1.03125,0.765625 L 5.25,0 C 5.4375,0 5.5625,0 5.5625,-0.234375 5.5625,-0.46875 5.4375,-0.46875 5.296875,-0.46875 4.6875,-0.484375 4.6875,-0.609375 4.6875,-0.84375 l 0,-2.140625 c 0,-0.890625 -0.703125,-1.53125 -2.1875,-1.53125 -0.5625,0 -1.78125,0.046875 -1.78125,0.921875 0,0.4375 0.34375,0.625 0.609375,0.625 0.3125,0 0.640625,-0.21875 0.640625,-0.625 0,-0.296875 -0.1875,-0.46875 -0.21875,-0.5 0.28125,-0.046875 0.59375,-0.0625 0.71875,-0.0625 0.734375,0 1.09375,0.421875 1.09375,1.171875 l 0,0.34375 c -0.71875,0.03125 -3.25,0.125 -3.25,1.5625 0,0.953125 1.25,1.140625 1.9375,1.140625 0.796875,0 1.265625,-0.40625 1.484375,-0.828125 z m -0.171875,-1.5625 0,0.9375 c 0,0.96875 -0.921875,1.09375 -1.171875,1.09375 -0.5,0 -0.90625,-0.34375 -0.90625,-0.796875 0,-1.0625 1.578125,-1.203125 2.078125,-1.234375 z m 0,0"
             style="stroke:none;stroke-width:0"
             inkscape:connector-curvature="0" />
        </g>
        <g
           id="g5031"
           style="fill:#000000;fill-opacity:1">
          <path
             id="path5033"
             transform="translate(154.282,136.259)"
             d="M 3.59375,-2.21875 C 3.59375,-2.984375 3.5,-3.546875 3.1875,-4.03125 2.96875,-4.34375 2.53125,-4.625 1.984375,-4.625 c -1.625,0 -1.625,1.90625 -1.625,2.40625 0,0.5 0,2.359375 1.625,2.359375 1.609375,0 1.609375,-1.859375 1.609375,-2.359375 z M 1.984375,-0.0625 c -0.328125,0 -0.75,-0.1875 -0.890625,-0.75 C 1,-1.21875 1,-1.796875 1,-2.3125 1,-2.828125 1,-3.359375 1.09375,-3.734375 1.25,-4.28125 1.6875,-4.4375 1.984375,-4.4375 c 0.375,0 0.734375,0.234375 0.859375,0.640625 0.109375,0.375 0.125,0.875 0.125,1.484375 0,0.515625 0,1.03125 -0.09375,1.46875 -0.140625,0.640625 -0.609375,0.78125 -0.890625,0.78125 z m 0,0"
             style="stroke:none;stroke-width:0"
             inkscape:connector-curvature="0" />
        </g>
      </g>
    </g>
    <g
       transform="matrix(1.500000,0.000000,0.000000,1.891675,-17.673718,-38.285723)"
       ns0:version="0.9.1"
       ns0:texconverter="pdflatex"
       ns0:pdfconverter="pdf2svg"
       ns0:text="$\\mathbf{a}$"
       ns0:preamble="/home/dancab/.config/inkscape/extensions/textext/default_packages.tex"
       ns0:scale="0.898395654486"
       ns0:alignment="middle center"
       inkscapeversion="0.91"
       ns0:jacobian_sqrt="1.68449176311"
       style=""
       id="g5232">
      <g
         id="g5234"
         style="">
        <g
           style="fill-opacity:1;fill:rgb(0%,0%,0%)"
           id="g5236">
          <path
             style="stroke:none;stroke-width:0"
             d="M 3.734375 -0.765625 C 3.734375 -0.453125 3.734375 0 4.765625 0 L 5.25 0 C 5.4375 0 5.5625 0 5.5625 -0.234375 C 5.5625 -0.46875 5.4375 -0.46875 5.296875 -0.46875 C 4.6875 -0.484375 4.6875 -0.609375 4.6875 -0.84375 L 4.6875 -2.984375 C 4.6875 -3.875 3.984375 -4.515625 2.5 -4.515625 C 1.9375 -4.515625 0.71875 -4.46875 0.71875 -3.59375 C 0.71875 -3.15625 1.0625 -2.96875 1.328125 -2.96875 C 1.640625 -2.96875 1.96875 -3.1875 1.96875 -3.59375 C 1.96875 -3.890625 1.78125 -4.0625 1.75 -4.09375 C 2.03125 -4.140625 2.34375 -4.15625 2.46875 -4.15625 C 3.203125 -4.15625 3.5625 -3.734375 3.5625 -2.984375 L 3.5625 -2.640625 C 2.84375 -2.609375 0.3125 -2.515625 0.3125 -1.078125 C 0.3125 -0.125 1.5625 0.0625 2.25 0.0625 C 3.046875 0.0625 3.515625 -0.34375 3.734375 -0.765625 Z M 3.5625 -2.328125 L 3.5625 -1.390625 C 3.5625 -0.421875 2.640625 -0.296875 2.390625 -0.296875 C 1.890625 -0.296875 1.484375 -0.640625 1.484375 -1.09375 C 1.484375 -2.15625 3.0625 -2.296875 3.5625 -2.328125 Z M 3.5625 -2.328125 "
             transform="translate(148.712,134.765)"
             id="path5238" />
        </g>
      </g>
    </g>
  </g>
  <g
     id="g1061"
     ns0:jacobian_sqrt="2.666667"
     inkscapeversion="0.91"
     ns0:alignment="middle center"
     ns0:scale="2.0"
     ns0:preamble="/home/dancab/.config/inkscape/extensions/textext/default_packages.tex"
     ns0:text="$\\mathbf{F}$"
     ns0:pdfconverter="pdf2svg"
     ns0:texconverter="pdflatex"
     ns0:version="0.11.0"
     transform="matrix(1.4126845,0,0,1.4126845,-80.878783,-163.04494)"
     style="stroke-width:1.88765919">
    <g
       id="g1059"
       style="stroke-width:1.88765919">
      <g
         id="g1057"
         style="fill:#000000;fill-opacity:1;stroke-width:1.88765919">
        <path
           id="path1055"
           transform="translate(148.712,134.765)"
           d="M 6.421875,-6.78125 H 0.390625 V -6.3125 H 1.46875 v 5.84375 H 0.390625 V 0 c 0.375,-0.03125 1.390625,-0.03125 1.828125,-0.03125 0.484375,0 1.5625,0 2.015625,0.03125 V -0.46875 H 2.875 v -2.6875 h 0.5 c 0.96875,0 1.046875,0.421875 1.046875,1.15625 h 0.46875 V -4.796875 H 4.421875 C 4.421875,-4.0625 4.34375,-3.625 3.375,-3.625 h -0.5 v -2.6875 h 1.40625 c 1.59375,0 1.828125,0.765625 1.984375,1.9375 h 0.46875 z m 0,0"
           style="stroke:none;stroke-width:0"
           inkscape:connector-curvature="0" />
      </g>
    </g>
  </g>
</svg>
